%!PS-Adobe-3.0 EPSF-3.0
%%BoundingBox: 36 126 576 666 % if scaleFact <= 0 (automatic)
%%%  -44 46 656 746 % if scaleFact > 0
%%%  0 0 612 792 % for the entire page
%%Creator: VU % http://www.invisu.ca/ , support@invisu.ca, using GL2PS 1.3.2, (C) 1999-2006 Christophe Geuzaine (geuz@geuz.org)
%%For: benoit
%%CreationDate: Mon Feb 25 19:22:28 2013
%%LanguageLevel: 3
%%Pages: 1
%%EndComments
%%BeginProlog
/gl2psdict 64 dict def gl2psdict begin
/rotAngle          0 def % rotation angle (deg)
/scaleFact         0 def % scale factor (0: automatic)
/backgroundColor   [ 0 0 0.25 ] def % colored background
%/backgroundColor   [ 1 1 1 ] def % white background
%/backgroundColor   [ 0 0 0 ] def % black background
/doBackground      1 def % 0 false, else true
/doBorder          1 def % 0 false, else true
/inBlackAndWhite   0 def % 0 color, 1 conversion, 2 black to white, 3 black and white (not very good!)
/lineWidth 1 def % line width (point)
/fontType /Helvetica-Bold def % font choice ; /Times-Roman
/fontSize 15 def % font height (point) 
/tryPS3shading true def % set to false to force subdivision
/rThreshold 0.064 def % red component subdivision threshold
/gThreshold 0.034 def % green component subdivision threshold
/bThreshold 0.1 def % blue component subdivision threshold
/iTreshold 4 def % color index treshold for subdivision (lower = best quality ; min = 1, max = 256)
/bandTreshold 0.01 def % precision for the outline of bands (the lesser the better) 
%------------------------------------ 
/xmin 0 def /ymin 0 def /xmax 700 def /ymax 700 def
/dx xmax xmin sub def /dy ymax ymin sub def
/margeX 36 def /margeY 72 def
/BD { bind def } bind def
/vuBegin
{
  gsave /vuSavedState save def
  612 2 div 792 2 div translate
  rotAngle rotate
  scaleFact 0 gt { scaleFact dup scale }
  {
    /fx 612 margeX 2 mul sub dx div def
    /fy 792 margeY 2 mul sub dy div def
    fx fy le { fx } { fy } ifelse dup scale
  } ifelse
  dx -2 div dy -2 div translate
  /vuCadre { newpath 0 0 moveto 0 700 lineto 700 700 lineto 700 0 lineto closepath } def
  vuCadre clip
  doBackground 0 ne { vuCadre BGC fill } if
  gsave
  0.001 0.001 scale
} def
/vuEnd
{
  grestore
  doBorder 0 ne { vuCadre BGI stroke } if
  vuSavedState restore grestore
  showpage
} def
/BGC {backgroundColor aload pop BWsetrgbcolor} bind def
/BGI {backgroundColor { .5 ge {0} {1} ifelse } forall BWsetrgbcolor} bind def
/R { /DeviceRGB setcolorspace } bind def
/rgb2h {
/coulB exch def /coulG exch def /coulR exch def
/coulmax coulR coulG lt { coulG } { coulR } ifelse dup coulB lt { pop coulB } if def
/coulmin coulR coulG gt { coulG } { coulR } ifelse dup coulB gt { pop coulB } if def
coulmax 0 eq { 0 } { coulmax coulmin sub coulmax div } ifelse 0 eq { 0 }
{
/rc coulmax coulR sub coulmax coulmin sub div def
/gc coulmax coulG sub coulmax coulmin sub div def
/bc coulmax coulB sub coulmax coulmin sub div def
coulR coulmax eq
{ bc gc sub } { coulG coulmax eq { rc bc sub 2 add } { gc rc sub 4 add } ifelse } ifelse
} ifelse 6 div % --> between 0 and 1
1 exch sub % between 1 and 0
} BD
/rgb2bw { setrgbcolor currentgray 0 eq { 1 } { 0 } ifelse } BD
/BWsetrgbcolor  [ {setrgbcolor}
         {setrgbcolor currentgray setgray}
         {rgb2h setgray}
         {rgb2bw setgray}
       ] inBlackAndWhite get BD
/BWgetrgbcolor  [ {}
         {setrgbcolor currentgray dup dup}
         {rgb2h dup dup}
         {rgb2bw dup dup}
       ] inBlackAndWhite get BD
/rgb2bw { setrgbcolor currentgray 0 eq { 1 } { 0 } ifelse } BD
/C  { 9999 div 3 1 roll 9999 div 3 1 roll 9999 div 3 1 roll BWsetrgbcolor } BD
/G  { 0.082 mul exch 0.6094 mul add exch 0.3086 mul add neg 1.0 add setgray } BD
/W  { pop lineWidth 1000 mul setlinewidth } BD
/FC { fontType findfont fontSize 1000 mul scalefont
      dup length dict begin {1 index /FID ne {def} {pop pop} ifelse} forall /Encoding ISOLatin1Encoding def currentdict end
      /myfontype-ISOLatin1Encoding exch definefont setfont } BD
/SW { dup stringwidth pop } BD
/S  { FC moveto show } BD
/SBC{ FC moveto SW -2 div 0 rmoveto show } BD
/SBR{ FC moveto SW neg 0 rmoveto show } BD
/SCL{ FC moveto 0 SH -2 div rmoveto show } BD
/SCC{ FC moveto SW -2 div SH -2 div rmoveto show } BD
/SCR{ FC moveto SW neg SH -2 div rmoveto show } BD
/STL{ FC moveto 0 SH neg rmoveto show } BD
/STC{ FC moveto SW -2 div SH neg rmoveto show } BD
/STR{ FC moveto SW neg SH neg rmoveto show } BD
/FCT { FC translate 0 0 } BD
/SR  { gsave FCT moveto rotate show grestore } BD
/SBCR{ gsave FCT moveto rotate SW -2 div 0 rmoveto show grestore } BD
/SBRR{ gsave FCT moveto rotate SW neg 0 rmoveto show grestore } BD
/SCLR{ gsave FCT moveto rotate 0 SH -2 div rmoveto show grestore} BD
/SCCR{ gsave FCT moveto rotate SW -2 div SH -2 div rmoveto show grestore} BD
/SCRR{ gsave FCT moveto rotate SW neg SH -2 div rmoveto show grestore} BD
/STLR{ gsave FCT moveto rotate 0 SH neg rmoveto show grestore } BD
/STCR{ gsave FCT moveto rotate SW -2 div SH neg rmoveto show grestore } BD
/STRR{ gsave FCT moveto rotate SW neg SH neg rmoveto show grestore } BD
/P  { newpath 0.0 360.0 arc closepath fill } BD
/LS { newpath moveto } BD
/L  { lineto } BD
/LE { lineto stroke } BD
/T  { newpath moveto lineto lineto closepath fill } BD
/STshfill {
      /b1 exch def /g1 exch def /r1 exch def /y1 exch def /x1 exch def
      /b2 exch def /g2 exch def /r2 exch def /y2 exch def /x2 exch def
      /b3 exch def /g3 exch def /r3 exch def /y3 exch def /x3 exch def
      /b1 b1 9999 div def /b2 b2 9999 div def /b3 b3 9999 div def
      /g1 g1 9999 div def /g2 g2 9999 div def /g3 g3 9999 div def
      /r1 r1 9999 div def /r2 r2 9999 div def /r3 r3 9999 div def
      r3 g3 b3 BWgetrgbcolor r2 g2 b2 BWgetrgbcolor r1 g1 b1 BWgetrgbcolor
      /b1 exch def /g1 exch def /r1 exch def
      /b2 exch def /g2 exch def /r2 exch def
      /b3 exch def /g3 exch def /r3 exch def
      gsave << /ShadingType 4 /ColorSpace [/DeviceRGB]
      /DataSource [ 0 x1 y1 r1 g1 b1 0 x2 y2 r2 g2 b2 0 x3 y3 r3 g3 b3 ] >>
      shfill grestore } BD
/Tm { 3 -1 roll 8 -1 roll 13 -1 roll add add 3 div
      3 -1 roll 7 -1 roll 11 -1 roll add add 3 div
      3 -1 roll 6 -1 roll 9 -1 roll add add 3 div C T } BD
%*************** FONCTIONS PATCHEES POUR LES PALETTES ******************* 
/TmP { gsave 3 -1 roll 9 -1 roll 15 -1 roll add add 3 div
      3 -1 roll 8 -1 roll 13 -1 roll add add 3 div
      3 -1 roll 7 -1 roll 11 -1 roll add add 3 div
      12 -1 roll 10 -1 roll 8 -1 roll 
      round setcolor currentrgbcolor 5 -2 roll
      round setcolor currentrgbcolor 4 -1 roll
      round setcolor currentrgbcolor 
      3 -1 roll 6 -1 roll 9 -1 roll add add 3 div
      3 -1 roll 5 -1 roll 7 -1 roll add add 3 div
      3 -1 roll 4 -1 roll 5 -1 roll add add 3 div
      3 -1 roll 6 -1 roll mul
      3 -1 roll 5 -1 roll mul
       3 -1 roll 4 -1 roll mul
      /DeviceRGB setcolorspace C T grestore} BD
/STsplitP {
      5 index 18 index add 0.5 mul
      5 index 18 index add 0.5 mul
      5 index 18 index add 0.5 mul
      5 index 18 index add 0.5 mul
      5 index 18 index add 0.5 mul
      5 index 18 index add 0.5 mul
      6 copy 6 copy 30 18 roll
      11 index 36 index add 0.5 mul
      11 index 36 index add 0.5 mul
      11 index 36 index add 0.5 mul
      11 index 36 index add 0.5 mul
      11 index 36 index add 0.5 mul
      11 index 36 index add 0.5 mul
      6 copy 6 copy 42 6 roll 30 6 roll 18 6 roll
      5 index 12 index add 0.5 mul
      5 index 12 index add 0.5 mul
      5 index 12 index add 0.5 mul
      5 index 12 index add 0.5 mul
      5 index 12 index add 0.5 mul
      5 index 12 index add 0.5 mul
      6 copy 6 copy 48 6 roll 30 6 roll 18 6 roll 30 6 roll
      STnoshfillP STnoshfillP STnoshfillP STnoshfillP } BD
/STnoshfillP {
                       5 index 12 index sub abs iTreshold gt
                        { STsplitP }
                        { 5 index 18 index sub abs iTreshold gt
                          { STsplitP }
                          { 11 index 18 index sub abs iTreshold gt
                            { STsplitP }
                            { TmP }
                            ifelse }
                          ifelse }
                      ifelse } BD
/STP { STnoshfillP } BD
/STsplitPB {
      5 index 18 index add 0.5 mul
      5 index 18 index add 0.5 mul
      5 index 18 index add 0.5 mul
      5 index 18 index add 0.5 mul
      5 index 18 index add 0.5 mul
      5 index 18 index add 0.5 mul
      6 copy 6 copy 30 18 roll
      11 index 36 index add 0.5 mul
      11 index 36 index add 0.5 mul
      11 index 36 index add 0.5 mul
      11 index 36 index add 0.5 mul
      11 index 36 index add 0.5 mul
      11 index 36 index add 0.5 mul
      6 copy 6 copy 42 6 roll 30 6 roll 18 6 roll
      5 index 12 index add 0.5 mul
      5 index 12 index add 0.5 mul
      5 index 12 index add 0.5 mul
      5 index 12 index add 0.5 mul
      5 index 12 index add 0.5 mul
      5 index 12 index add 0.5 mul
      6 copy 6 copy 48 6 roll 30 6 roll 18 6 roll 30 6 roll
      STnoshfillPB STnoshfillPB STnoshfillPB STnoshfillPB } BD
/STnoshfillPB {
                       5 index 12 index sub abs bandTreshold ge 6 index 0.5 add floor 13 index 0.5 add floor sub abs 1.0 ge and 
                        { STsplitPB }
                        { 5 index 18 index sub abs bandTreshold ge 6 index 0.5 add floor 19 index 0.5 add floor sub abs 1.0 ge and 
                          { STsplitPB }
                          { 11 index 18 index sub abs bandTreshold ge 12 index 0.5 add floor 19 index 0.5 add floor sub abs 1.0 ge and 
                            { STsplitPB }
                            { TmP }
                            ifelse }
                          ifelse }
                      ifelse } BD
/STPB { STnoshfillPB } BD
/LSP {
         2 index 6 index sub abs iTreshold gt
          { LSsplit }
          { LScol }
           ifelse  } BD
/LSsplit {
         2 index 6 index add 0.5 mul
         2 index 6 index add 0.5 mul
         2 index 6 index add 0.5 mul
         3 copy 9 6 roll
         LSP LSP } BD
/LScol {
         gsave 3 -1 roll 6 -1 roll add 2 div
         round setcolor 
         newpath moveto lineto stroke grestore } BD
%*************** FIN PATCH **********************************
 /STsplit {
      4 index 15 index add 0.5 mul
      4 index 15 index add 0.5 mul
      4 index 15 index add 0.5 mul
      4 index 15 index add 0.5 mul
      4 index 15 index add 0.5 mul
      5 copy 5 copy 25 15 roll
      9 index 30 index add 0.5 mul
      9 index 30 index add 0.5 mul
      9 index 30 index add 0.5 mul
      9 index 30 index add 0.5 mul
      9 index 30 index add 0.5 mul
      5 copy 5 copy 35 5 roll 25 5 roll 15 5 roll
      4 index 10 index add 0.5 mul
      4 index 10 index add 0.5 mul
      4 index 10 index add 0.5 mul
      4 index 10 index add 0.5 mul
      4 index 10 index add 0.5 mul
      5 copy 5 copy 40 5 roll 25 5 roll 15 5 roll 25 5 roll
      STnoshfill STnoshfill STnoshfill STnoshfill } BD
/STnoshfill {
      2 index 8 index sub abs rThreshold gt
      { STsplit }
      { 1 index 7 index sub abs gThreshold gt
        { STsplit }
        { dup 6 index sub abs bThreshold gt
          { STsplit }
          { 2 index 13 index sub abs rThreshold gt
            { STsplit }
            { 1 index 12 index sub abs gThreshold gt
              { STsplit }
              { dup 11 index sub abs bThreshold gt
                { STsplit }
                { 7 index 13 index sub abs rThreshold gt
                  { STsplit }
                  { 6 index 12 index sub abs gThreshold gt
                    { STsplit }
                    { 5 index 11 index sub abs bThreshold gt
                      { STsplit }
                      { Tm }
                      ifelse }
                    ifelse }
                  ifelse }
                ifelse }
              ifelse }
            ifelse }
          ifelse }
        ifelse }
      ifelse } BD
tryPS3shading
{ /shfill where
  { /ST { STshfill } BD }
  { /ST { STnoshfill } BD }
  ifelse }
{ /ST { STnoshfill } BD }
ifelse
end
%%EndProlog
%%BeginSetup
/DeviceRGB setcolorspace
gl2psdict begin
%%EndSetup
%%Page: 1 1
%%BeginPageSetup
%%EndPageSetup
vuBegin
1 W
9999 9999 9999 C
127880 203077 LS
128091 123130 LE
127248 442919 LS
127037 522866 LE
127669 283024 LS
127880 203077 LE
128091 123130 LS
127880 203077 L
128091 123130 LE
127248 442919 LS
127037 522866 L
127248 442919 LE
127459 362971 LS
127248 442919 L
127459 362971 LE
127669 283024 LS
127880 203077 L
127669 283024 LE
127459 362971 LS
127669 283024 L
127459 362971 LE
208460 122070 LS
128091 123130 LE
449569 118890 LS
529938 117829 LE
208460 122070 LS
128091 123130 L
208460 122070 LE
529938 117829 LS
449569 118890 L
529938 117829 LE
288830 121010 LS
369199 119950 L
449569 118890 LE
208460 122070 LS
288830 121010 LE
449569 118890 LS
369199 119950 LE
288830 121010 LS
208460 122070 LE
369199 119950 LS
288830 121010 LE
136696 134991 LS
128091 123130 LE
136696 134991 LS
128091 123130 L
136696 134991 LE
130484 182970 LS
136696 134991 LE
130484 182970 LS
136696 134991 L
208460 122070 L
136696 134991 LE
138977 182858 LS
136696 134991 LE
138977 182858 LS
136696 134991 LE
142102 182817 LS
145301 146852 LE
142102 182817 LS
145301 146852 LE
147494 182746 LS
145301 146852 LE
147494 182746 LS
145301 146852 LE
152489 178338 LS
148112 182738 LE
152489 178338 LS
148112 182738 LE
152176 182684 LS
153905 158713 LE
152176 182684 LS
153905 158713 LE
155100 175713 LS
153905 158713 LE
155100 175713 LS
153905 158713 LE
152489 178338 LS
161541 169238 LE
152489 178338 LS
161541 169238 LE
155100 175713 LS
155587 182639 LE
155100 175713 LS
155587 182639 LE
161859 182557 LS
162510 170574 LE
161859 182557 LS
162510 170574 LE
163604 182534 LS
162510 170574 LE
163604 182534 LS
162510 170574 L
171115 182434 LE
153905 158713 LS
145301 146852 LE
162510 170574 LS
153905 158713 LE
162510 170574 LS
171115 182434 L
162510 170574 LE
136696 134991 LS
145301 146852 L
136696 134991 LE
153905 158713 LS
145301 146852 L
153905 158713 LE
162510 170574 LS
153905 158713 L
162510 170574 LE
529910 128642 LS
529938 117829 LE
529910 128642 LS
529938 117829 LE
529910 128642 LS
529938 117829 LE
449569 118890 LS
538543 129690 L
449569 118890 LE
197412 133177 LS
136696 134991 LE
197412 133177 LS
136696 134991 LE
191727 138892 LS
136696 134991 LE
191727 138892 LS
136696 134991 LE
187369 143273 LS
145301 146852 LE
187369 143273 LS
145301 146852 LE
182907 147759 LS
145301 146852 LE
182907 147759 LS
145301 146852 LE
178147 152545 LS
145301 146852 LE
178147 152545 LS
145301 146852 LE
171855 158869 LS
153905 158713 LE
171855 158869 LS
153905 158713 LE
161541 169238 LS
208460 122070 LE
161541 169238 LS
208460 122070 LE
207404 132878 LS
197412 133177 LE
207404 132878 LS
197412 133177 LE
206713 139954 LS
191727 138892 LE
206713 139954 LS
191727 138892 LE
206548 141641 LS
187369 143273 LE
206548 141641 LS
187369 143273 LE
205897 148313 LS
182907 147759 LE
205897 148313 LS
182907 147759 LE
205028 157203 LS
178147 152545 LE
205028 157203 LS
178147 152545 LE
204837 159156 LS
171855 158869 LE
204837 159156 LS
171855 158869 LE
204576 161825 LS
162510 170574 LE
204576 161825 LS
162510 170574 LE
203737 170415 LS
162510 170574 LE
203737 170415 LS
162510 170574 LE
203239 175518 LS
208460 122070 LE
203239 175518 LS
208460 122070 LE
215985 132622 LS
207404 132878 LE
215985 132622 LS
207404 132878 LE
221008 139665 LS
217442 140715 LE
221008 139665 LS
217442 140715 LE
221750 140705 LS
217442 140715 LE
221750 140705 LS
217442 140715 LE
222579 141867 LS
208460 122070 LE
222579 141867 LS
208460 122070 LE
337609 130631 LS
369199 119950 L
337609 130631 L
288830 121010 L
337609 130631 LE
208460 122070 LS
248212 131658 L
208460 122070 LE
215985 132622 LS
248212 131658 LE
215985 132622 LS
248212 131658 LE
288830 121010 LS
248212 131658 L
288830 121010 LE
221008 139665 LS
248212 131658 LE
221008 139665 LS
248212 131658 LE
284430 131242 LS
248212 131658 LE
284430 131242 LS
248212 131658 LE
281789 137386 LS
248212 131658 LE
281789 137386 LS
248212 131658 LE
280435 140535 LS
288830 121010 LE
280435 140535 LS
288830 121010 LE
293580 131137 LS
288830 121010 LE
293580 131137 LS
288830 121010 LE
284430 131242 LS
337609 130631 LE
284430 131242 LS
337609 130631 LE
297792 140116 LS
281789 137386 LE
297792 140116 LS
281789 137386 LE
293580 131137 LS
297988 140533 LE
293580 131137 LS
297988 140533 LE
297792 140116 LS
300235 140533 LE
297792 140116 LS
300235 140533 LE
368125 122546 LS
369199 119950 LE
368125 122546 LS
369199 119950 LE
337609 130631 LS
300235 140533 L
337609 130631 LE
364844 130476 LS
337609 130631 LE
364844 130476 LS
337609 130631 LE
362840 135319 LS
368125 122546 LE
362840 135319 LS
368125 122546 LE
364844 130476 LS
374181 130423 LE
364844 130476 LS
374181 130423 LE
377836 138105 LS
337609 130631 LE
377836 138105 LS
337609 130631 LE
362840 135319 LS
360686 140526 LE
362840 135319 LS
360686 140526 LE
378987 140524 LS
300235 140533 LE
378987 140524 LS
300235 140533 LE
357388 148497 LS
350526 150132 LE
357388 148497 LS
350526 150132 LE
356695 150171 LS
360686 140526 LE
356695 150171 LS
360686 140526 LE
357388 148497 LS
380194 143063 LE
357388 148497 LS
380194 143063 LE
383657 150341 LS
350526 150132 LE
383657 150341 LS
350526 150132 LE
356695 150171 LS
356259 151226 LE
356695 150171 LS
356259 151226 LE
360524 152040 LS
350526 150132 L
300235 140533 L
350526 150132 LE
360524 152040 LS
350526 150132 LE
280417 140577 LS
280435 140535 LE
280417 140577 LS
280435 140535 LE
221750 140705 LS
300235 140533 LE
221750 140705 LS
300235 140533 LE
278499 145036 LS
256767 149539 LE
278499 145036 LS
256767 149539 LE
276510 149664 LS
256767 149539 LE
276510 149664 LS
256767 149539 LE
280417 140577 LS
276360 150011 LE
280417 140577 LS
276360 150011 LE
298187 140958 LS
297988 140533 LE
298187 140958 LS
297988 140533 LE
278499 145036 LS
300235 140533 LE
278499 145036 LS
300235 140533 LE
302347 149827 LS
276510 149664 LE
302347 149827 LS
276510 149664 LE
298187 140958 LS
302732 150647 LE
298187 140958 LS
302732 150647 LE
302347 149827 LS
350526 150132 LE
302347 149827 LS
350526 150132 LE
344172 151646 LS
350526 150132 LE
344172 151646 LS
350526 150132 LE
356259 151226 LS
355967 151930 LE
356259 151226 LS
355967 151930 LE
256767 149539 LS
217442 140715 L
256767 149539 LE
206713 139954 LS
217442 140715 LE
206713 139954 LS
217442 140715 LE
206548 141641 LS
217442 140715 LE
206548 141641 LS
217442 140715 LE
222579 141867 LS
227548 148835 LE
222579 141867 LS
227548 148835 LE
205897 148313 LS
256767 149539 LE
205897 148313 LS
256767 149539 LE
275062 153032 LS
276360 150011 LE
275062 153032 LS
276360 150011 LE
306682 159069 LS
302732 150647 LE
306682 159069 LS
302732 150647 LE
344172 151646 LS
310199 159741 LE
344172 151646 LS
310199 159741 LE
352738 159736 LS
310199 159741 LE
352738 159736 LS
310199 159741 LE
349700 167079 LS
310199 159741 LE
349700 167079 LS
310199 159741 LE
256767 149539 LS
310199 159741 L
256767 149539 LE
205028 157203 LS
216902 159261 LE
205028 157203 LS
216902 159261 LE
204837 159156 LS
216902 159261 LE
204837 159156 LS
216902 159261 LE
204576 161825 LS
216902 159261 LE
204576 161825 LS
216902 159261 LE
232305 155505 LS
227548 148835 LE
232305 155505 LS
227548 148835 LE
216902 159261 LS
256767 149539 L
216902 159261 LE
235050 159355 LS
232305 155505 LE
235050 159355 LS
232305 155505 LE
272261 159546 LS
275062 153032 LE
272261 159546 LS
275062 153032 LE
306989 159724 LS
216902 159261 LE
306989 159724 LS
216902 159261 LE
237905 163357 LS
235050 159355 LE
237905 163357 LS
235050 159355 LE
268091 169244 LS
216902 159261 LE
268091 169244 LS
216902 159261 LE
242831 170264 LS
203737 170415 LE
242831 170264 LS
203737 170415 LE
237905 163357 LS
242870 170320 LE
237905 163357 LS
242870 170320 LE
242831 170264 LS
267694 170169 LE
242831 170264 LS
267694 170169 LE
272261 159546 LS
267690 170178 LE
272261 159546 LS
267690 170178 LE
268091 169244 LS
272732 170149 LE
268091 169244 LS
272732 170149 LE
267694 170169 LS
272732 170149 LE
267694 170169 LS
272732 170149 LE
307366 160528 LS
306682 159069 LE
307366 160528 LS
306682 159069 LE
306989 159724 LS
310199 159741 LE
306989 159724 LS
310199 159741 L
272732 170149 L
310199 159741 LE
307366 160528 LS
311775 169927 LE
307366 160528 LS
311775 169927 LE
348608 169717 LS
272732 170149 LE
348608 169717 LS
272732 170149 LE
242870 170320 LS
250685 181277 LE
242870 170320 LS
250685 181277 LE
266224 173588 LS
251484 181374 LE
266224 173588 LS
251484 181374 LE
267690 170178 LS
262941 181223 LE
267690 170178 LS
262941 181223 LE
266224 173588 LS
272732 170149 LE
266224 173588 LS
272732 170149 LE
315314 177470 LS
272732 170149 LE
315314 177470 LS
272732 170149 LE
311775 169927 LS
316741 180513 LE
311775 169927 LS
316741 180513 LE
315314 177470 LS
331854 180314 LE
315314 177470 LS
331854 180314 LE
355967 151930 LS
346236 175451 LE
355967 151930 LS
346236 175451 LE
360524 152040 LS
386856 157066 LE
360524 152040 LS
386856 157066 LE
352738 159736 LS
388124 159732 LE
352738 159736 LS
388124 159732 LE
349700 167079 LS
363444 169632 LE
349700 167079 LS
363444 169632 LE
348608 169717 LS
363444 169632 LE
348608 169717 LS
363444 169632 LE
388762 161072 LS
369199 119950 LE
388762 161072 LS
369199 119950 LE
428321 130114 LS
449569 118890 L
428321 130114 LE
442148 130061 LS
428321 130114 LE
442148 130061 LS
428321 130114 LE
369199 119950 LS
428321 130114 L
369199 119950 LE
374181 130423 LS
428321 130114 LE
374181 130423 LS
428321 130114 LE
390854 140523 LS
428321 130114 L
390854 140523 LE
440531 132496 LS
428321 130114 LE
440531 132496 LS
428321 130114 LE
435048 140750 LS
390854 140523 LE
435048 140750 LS
390854 140523 LE
377836 138105 LS
390854 140523 LE
377836 138105 LS
390854 140523 LE
378987 140524 LS
390854 140523 LE
378987 140524 LS
390854 140523 LE
428357 147684 LS
390854 140523 LE
428357 147684 LS
390854 140523 LE
380194 143063 LS
390854 140523 LE
380194 143063 LS
390854 140523 LE
383657 150341 LS
419820 150570 LE
383657 150341 LS
419820 150570 LE
386856 157066 LS
395647 158744 LE
386856 157066 LS
395647 158744 LE
388124 159732 LS
392726 159732 LE
388124 159732 LS
392726 159732 LE
431046 146774 LS
449569 118890 LE
431046 146774 LS
449569 118890 LE
442148 130061 LS
450885 130028 LE
442148 130061 LS
450885 130028 LE
440531 132496 LS
451428 134621 LE
440531 132496 LS
451428 134621 LE
435048 140750 LS
448656 140820 LE
435048 140750 LS
448656 140820 LE
363444 169632 LS
331854 180314 L
363444 169632 LE
346236 175451 LS
344291 180150 LE
346236 175451 LS
344291 180150 LE
448656 140820 LS
452163 140838 LE
448656 140820 LS
452163 140838 LE
430207 148037 LS
428357 147684 LE
430207 148037 LS
428357 147684 LE
428488 150625 LS
431046 146774 LE
428488 150625 LS
431046 146774 LE
430207 148037 LS
444286 150725 LE
430207 148037 LS
444286 150725 LE
419820 150570 LS
444286 150725 LE
419820 150570 LS
444286 150725 LE
428488 150625 LS
425890 154536 LE
428488 150625 LS
425890 154536 LE
453079 148580 LS
444286 150725 LE
453079 148580 LS
444286 150725 L
400818 159731 L
444286 150725 LE
425890 154536 LS
422471 159683 LE
425890 154536 LS
422471 159683 LE
453358 150944 LS
444286 150725 LE
453358 150944 LS
444286 150725 LE
453579 152810 LS
444286 150725 LE
453579 152810 LS
444286 150725 LE
454383 159613 LS
400818 159731 LE
454383 159613 LS
400818 159731 LE
422471 159683 LS
420239 163044 LE
422471 159683 LS
420239 163044 LE
395647 158744 LS
400818 159731 LE
395647 158744 LS
400818 159731 LE
455358 167864 LS
452841 168605 LE
455358 167864 LS
452841 168605 L
400818 159731 L
452841 168605 LE
392726 159732 LS
400818 159731 LE
392726 159732 LS
400818 159731 LE
389544 162718 LS
388762 161072 LE
389544 162718 LS
388762 161072 LE
400818 159731 LS
363444 169632 L
400818 159731 LE
392674 169297 LS
389544 162718 LE
392674 169297 LS
389544 162718 LE
416266 169026 LS
363444 169632 LE
416266 169026 LS
363444 169632 LE
392674 169297 LS
395877 176030 LE
392674 169297 LS
395877 176030 LE
409790 178774 LS
420239 163044 LE
409790 178774 LS
420239 163044 LE
416266 169026 LS
452841 168605 LE
416266 169026 LS
452841 168605 LE
363444 169632 LS
412223 179254 L
363444 169632 LE
395877 176030 LS
397503 179448 LE
395877 176030 LS
397503 179448 LE
409790 178774 LS
409447 179291 LE
409790 178774 LS
409447 179291 LE
455368 167943 LS
449569 118890 LE
455368 167943 LS
449569 118890 LE
450885 130028 LS
460847 129989 LE
450885 130028 LS
460847 129989 LE
451428 134621 LS
469045 138057 LE
451428 134621 LS
469045 138057 LE
452163 140838 LS
471975 140940 LE
452163 140838 LS
471975 140940 LE
453079 148580 LS
474444 143370 LE
453079 148580 LS
474444 143370 LE
453358 150944 LS
482862 151655 LE
453358 150944 LS
482862 151655 LE
453579 152810 LS
483611 159549 LE
453579 152810 LS
483611 159549 LE
454383 159613 LS
483611 159549 LE
454383 159613 LS
483611 159549 LE
455358 167864 LS
483611 159549 LE
455358 167864 LS
483611 159549 LE
489199 159074 LS
483611 159549 LE
489199 159074 LS
483611 159549 LE
486582 159760 LS
483611 159549 LE
486582 159760 LS
483611 159549 LE
490148 158825 LS
449569 118890 LE
490148 158825 LS
449569 118890 LE
460847 129989 LS
529907 129723 LE
460847 129989 LS
529907 129723 LE
469045 138057 LS
484151 141003 LE
469045 138057 LS
484151 141003 LE
471975 140940 LS
484151 141003 LE
471975 140940 LS
484151 141003 LE
474444 143370 LS
484151 141003 LE
474444 143370 LS
484151 141003 LE
529902 131487 LS
484151 141003 LE
529902 131487 LS
484151 141003 LE
529876 141401 LS
484151 141003 LE
529876 141401 LS
484151 141003 LE
528688 148721 LS
484151 141003 LE
528688 148721 LS
484151 141003 LE
482862 151655 LS
514581 152419 LE
482862 151655 LS
514581 152419 LE
529858 148415 LS
529910 128642 LE
529858 148415 LS
529910 128642 LE
529858 148415 LS
529910 128642 LE
529907 129723 LS
538543 129690 LE
529907 129723 LS
538543 129690 LE
529902 131487 LS
538543 129690 LE
529902 131487 LS
538543 129690 LE
529876 141401 LS
537019 141463 LE
529876 141401 LS
537019 141463 LE
412223 179254 LS
452841 168605 L
412223 179254 LE
529856 148924 LS
528688 148721 LE
529856 148924 LS
528688 148721 LE
529846 152787 LS
529858 148415 LE
529846 152787 LS
529858 148415 LE
529846 152787 LS
529858 148415 LE
529856 148924 LS
535917 149974 LE
529856 148924 LS
535917 149974 LE
514581 152419 LS
535535 152924 LE
514581 152419 LS
535535 152924 LE
455437 168528 LS
452841 168605 LE
455437 168528 LS
452841 168605 LE
455522 169252 LS
455368 167943 LE
455522 169252 LS
455368 167943 LE
490305 158980 LS
490148 158825 LE
490305 158980 LS
490148 158825 LE
529839 155616 LS
529846 152787 LE
529839 155616 LS
529846 152787 LE
529839 155616 LS
529846 152787 LE
489199 159074 LS
535246 155156 LE
489199 159074 LS
535246 155156 LE
491448 160105 LS
486582 159760 LE
491448 160105 LS
486582 159760 LE
498694 167235 LS
490305 158980 LE
498694 167235 LS
490305 158980 LE
491448 160105 LS
529819 162825 LE
491448 160105 LS
529819 162825 LE
529810 166305 LS
455437 168528 LE
529810 166305 LS
455437 168528 LE
498694 167235 LS
507163 175570 LE
498694 167235 LS
507163 175570 LE
529797 171495 LS
529839 155616 LE
529797 171495 LS
529839 155616 LE
529797 171495 LS
529839 155616 LE
529819 162825 LS
534212 163136 LE
529819 162825 LS
534212 163136 LE
529810 166305 LS
533818 166185 LE
529810 166305 LS
533818 166185 LE
533210 170881 LS
492593 178194 LE
533210 170881 LS
492593 178194 LE
507163 175570 LS
509601 177969 LE
507163 175570 LS
509601 177969 LE
529797 171495 LS
529780 177703 LE
529797 171495 LS
529780 177703 LE
529797 171495 LS
529780 177703 LE
492593 178194 LS
452841 168605 L
492593 178194 LE
455522 169252 LS
456636 178668 LE
455522 169252 LS
456636 178668 LE
532331 177670 LS
538543 129690 LE
532331 177670 LS
538543 129690 LE
539105 141481 LS
538543 129690 LE
539105 141481 LS
538543 129690 LE
537019 141463 LS
547148 141551 LE
537019 141463 LS
547148 141551 LE
539539 150602 LS
535917 149974 LE
539539 150602 LS
535917 149974 LE
539655 153024 LS
535535 152924 LE
539655 153024 LS
535535 152924 LE
539738 154774 LS
539105 141481 LE
539738 154774 LS
539105 141481 LE
546239 151763 LS
539539 150602 LE
546239 151763 LS
539539 150602 LE
546113 153179 LS
547148 141551 LE
546113 153179 LS
547148 141551 LE
547788 152032 LS
547148 141551 LE
547788 152032 LS
547148 141551 LE
546239 151763 LS
555753 153412 LE
546239 151763 LS
555753 153412 LE
547788 152032 LS
547861 153222 LE
547788 152032 LS
547861 153222 LE
539655 153024 LS
555753 153412 LE
539655 153024 LS
555753 153412 LE
546113 153179 LS
546019 154240 LE
546113 153179 LS
546019 154240 LE
547861 153222 LS
547913 154079 LE
547861 153222 LS
547913 154079 LE
535246 155156 LS
555753 153412 LE
535246 155156 LS
555753 153412 LE
540157 163557 LS
534212 163136 LE
540157 163557 LS
534212 163136 LE
540273 165992 LS
533818 166185 LE
540273 165992 LS
533818 166185 LE
540444 169578 LS
533210 170881 LE
540444 169578 LS
533210 170881 LE
539738 154774 LS
540824 177558 LE
539738 154774 LS
540824 177558 LE
545159 163912 LS
540157 163557 LE
545159 163912 LS
540157 163557 LE
544986 165852 LS
540273 165992 LE
544986 165852 LS
540273 165992 LE
544723 168808 LS
540444 169578 LE
544723 168808 LS
540444 169578 LE
546019 154240 LS
543949 177516 LE
546019 154240 LS
543949 177516 LE
548529 164151 LS
545159 163912 LE
548529 164151 LS
545159 163912 LE
548626 165743 LS
544986 165852 LE
548626 165743 LS
544986 165852 LE
548769 168079 LS
547913 154079 LE
548769 168079 LS
547913 154079 LE
554945 164605 LS
548529 164151 LE
554945 164605 LS
548529 164151 LE
554876 165556 LS
548626 165743 LE
554876 165556 LS
548626 165743 LE
554772 166998 LS
555753 153412 LE
554772 166998 LS
555753 153412 LE
556547 164719 LS
554945 164605 LE
556547 164719 LS
554945 164605 LE
556602 165504 LS
555753 153412 LE
556602 165504 LS
555753 153412 LE
556547 164719 LS
564357 165273 LE
556547 164719 LS
564357 165273 LE
554876 165556 LS
564357 165273 LE
554876 165556 LS
564357 165273 LE
556602 165504 LS
556683 166654 LE
556602 165504 LS
556683 166654 LE
544723 168808 LS
564357 165273 LE
544723 168808 LS
564357 165273 LE
548769 168079 LS
549341 177445 LE
548769 168079 LS
549341 177445 LE
554772 166998 LS
554023 177383 LE
554772 166998 LS
554023 177383 LE
556683 166654 LS
557434 177338 LE
556683 166654 LS
557434 177338 LE
563706 177256 LS
564357 165273 LE
563706 177256 LS
564357 165273 LE
565451 177233 LS
564357 165273 LE
565451 177233 LS
564357 165273 LE
251484 181374 LS
162510 170574 L
251484 181374 LE
203239 175518 LS
202603 182019 LE
203239 175518 LS
202603 182019 LE
250685 181277 LS
250761 181384 LE
250685 181277 LS
250761 181384 LE
251484 181374 LS
171115 182434 LE
251484 181374 LS
331854 180314 LE
492593 178194 LS
572962 177133 LE
492593 178194 LS
412223 179254 LE
251484 181374 LS
171115 182434 L
251484 181374 LE
331854 180314 LS
412223 179254 LE
331854 180314 LS
251484 181374 L
331854 180314 LE
492593 178194 LS
572962 177133 L
492593 178194 L
412223 179254 L
492593 178194 LE
412223 179254 LS
331854 180314 LE
130484 182970 LS
127880 203077 LE
130484 182970 LS
127880 203077 LE
134548 522766 LS
127248 442919 LE
134548 522766 LS
127248 442919 LE
139389 191508 LS
138977 182858 LE
139389 191508 LS
138977 182858 LE
141519 189366 LS
142102 182817 LE
141519 189366 LS
142102 182817 LE
147529 183324 LS
147494 182746 LE
147529 183324 LS
147494 182746 LE
148112 182738 LS
127880 203077 LE
148112 182738 LS
127880 203077 LE
127669 283024 LS
135988 257909 L
127669 283024 LE
128870 300960 LS
127669 283024 LE
128870 300960 LS
127669 283024 LE
139433 324144 LS
127669 283024 L
139433 324144 LE
136945 276317 LS
135988 257909 LE
136945 276317 LS
135988 257909 LE
138539 275164 LS
127669 283024 LE
138539 275164 LS
127669 283024 LE
137573 288390 LS
127669 283024 LE
137573 288390 LS
127669 283024 LE
136945 276317 LS
139433 324144 LE
136945 276317 LS
139433 324144 LE
137573 288390 LS
140749 290110 LE
137573 288390 LS
140749 290110 LE
142112 299326 LS
139433 324144 LE
142112 299326 LS
139433 324144 LE
135988 257909 LS
127880 203077 L
135988 257909 LE
139389 191508 LS
140066 205710 LE
139389 191508 LS
140066 205710 LE
140289 203203 LS
140066 205710 LE
140289 203203 LS
140066 205710 L
127880 203077 L
140066 205710 LE
140487 206245 LS
140066 205710 LE
140487 206245 LS
140066 205710 LE
139878 208117 LS
127880 203077 LE
139878 208117 LS
127880 203077 LE
135988 257909 LS
140066 205710 L
135988 257909 LE
140248 208272 LS
140066 205710 LE
140248 208272 LS
140066 205710 LE
139878 208117 LS
140630 208433 LE
139878 208117 LS
140630 208433 LE
140248 208272 LS
144686 270719 LE
140248 208272 LS
144686 270719 LE
143677 271449 LS
144702 270708 LE
143677 271449 LS
144702 270708 LE
144686 270719 LS
144890 273586 LE
144686 270719 LS
144890 273586 L
135988 257909 L
144890 273586 LE
143677 271449 LS
138539 275164 LE
143677 271449 LS
138539 275164 LE
142976 291317 LS
140749 290110 LE
142976 291317 LS
140749 290110 LE
142112 299326 LS
144890 273586 LE
142112 299326 LS
144890 273586 LE
142976 291317 LS
146162 293043 LE
142976 291317 LS
146162 293043 LE
149664 346598 LS
144890 273586 L
149664 346598 LE
140289 203203 LS
141519 189366 LE
140289 203203 LS
141519 189366 LE
142998 209427 LS
140487 206245 LE
142998 209427 LS
140487 206245 LE
144822 210194 LS
140630 208433 LE
144822 210194 LS
140630 208433 LE
142998 209427 LS
149639 217847 LE
142998 209427 LS
149639 217847 LE
145164 270374 LS
149639 217847 LE
145164 270374 LS
149639 217847 LE
152868 264803 LS
144702 270708 LE
152868 264803 LS
144702 270708 LE
145164 270374 LS
144890 273586 LE
145164 270374 LS
144890 273586 LE
149639 217847 LS
154552 289310 L
149639 217847 LE
152868 264803 LS
156766 261984 LE
152868 264803 LS
156766 261984 LE
154552 289310 LS
159120 232911 L
154552 289310 LE
160751 259103 LS
159120 232911 LE
160751 259103 LS
159120 232911 LE
167610 254143 LS
156766 261984 LE
167610 254143 LS
156766 261984 LE
160751 259103 LS
163212 298641 LE
160751 259103 LS
163212 298641 LE
159120 232911 LS
170904 262381 L
159120 232911 LE
167610 254143 LS
169993 252419 LE
167610 254143 LS
169993 252419 LE
163212 298641 LS
170904 262381 L
163212 298641 LE
154552 289310 LS
163212 298641 L
154552 289310 LE
163084 302209 LS
163212 298641 LE
163084 302209 LS
163212 298641 LE
163898 302651 LS
163212 298641 LE
163898 302651 LS
163212 298641 LE
149639 217847 LS
159120 232911 L
149639 217847 LE
149286 212069 LS
147529 183324 LE
149286 212069 LS
147529 183324 LE
150033 212383 LS
144822 210194 LE
150033 212383 LS
144822 210194 LE
149286 212069 LS
149639 217847 LE
149286 212069 LS
149639 217847 LE
152176 182684 LS
149639 217847 LE
152176 182684 LS
149639 217847 LE
157910 215691 LS
155587 182639 LE
157910 215691 LS
155587 182639 LE
160009 216573 LS
150033 212383 LE
160009 216573 LS
150033 212383 LE
157910 215691 LS
159120 232911 LE
157910 215691 LS
159120 232911 LE
161859 182557 LS
159120 232911 LE
161859 182557 LS
159120 232911 LE
160009 216573 LS
166984 219503 LE
160009 216573 LS
166984 219503 LE
162178 301718 LS
170788 306383 LE
162178 301718 LS
170788 306383 LE
163084 302209 LS
163051 303139 LE
163084 302209 LS
163051 303139 LE
163898 302651 LS
164342 305240 LE
163898 302651 LS
164342 305240 LE
154552 289310 LS
144890 273586 L
154552 289310 LE
153877 297222 LS
146162 293043 LE
153877 297222 LS
146162 293043 LE
149664 346598 LS
154552 289310 L
149664 346598 LE
155254 297968 LS
154552 289310 LE
155254 297968 LS
154552 289310 LE
153877 297222 LS
162178 301718 LE
153877 297222 LS
162178 301718 LE
155254 297968 LS
159023 344475 LE
155254 297968 LS
159023 344475 LE
163051 303139 LS
161624 342951 LE
163051 303139 LS
161624 342951 LE
164342 305240 LS
169963 338064 LE
164342 305240 LS
169963 338064 LE
151091 349123 LS
170706 337629 LE
151091 349123 LS
170706 337629 LE
159023 344475 LS
160789 366274 LE
159023 344475 LS
160789 366274 LE
161624 342951 LS
160789 366274 LE
161624 342951 LS
160789 366274 LE
169963 338064 LS
170693 342329 LE
169963 338064 LS
170693 342329 LE
149664 346598 LS
139433 324144 L
149664 346598 LE
128870 300960 LS
129543 311012 LE
128870 300960 LS
129543 311012 LE
139083 327884 LS
139433 324144 LE
139083 327884 LS
139433 324144 LE
139727 329023 LS
139433 324144 LE
139727 329023 LS
139433 324144 LE
170693 342329 LS
160789 366274 L
170693 342329 LE
160789 366274 LS
149664 346598 L
160789 366274 LE
132811 359835 LS
129543 311012 LE
132811 359835 LS
129543 311012 LE
136282 357801 LS
127459 362971 LE
136282 357801 LS
127459 362971 LE
132811 359835 LS
133278 366809 LE
132811 359835 LS
133278 366809 LE
135313 368150 LS
127459 362971 LE
135313 368150 LS
127459 362971 LE
133278 366809 LS
134179 380260 LE
133278 366809 LS
134179 380260 LE
139083 327884 LS
134179 380260 LE
139083 327884 LS
134179 380260 LE
136282 357801 LS
141282 354871 LE
136282 357801 LS
141282 354871 LE
135313 368150 LS
142362 372798 LE
135313 368150 LS
142362 372798 LE
139727 329023 LS
144209 403485 LE
139727 329023 LS
144209 403485 LE
141282 354871 LS
149322 350160 LE
141282 354871 LS
149322 350160 LE
142362 372798 LS
146867 375769 LE
142362 372798 LS
146867 375769 LE
149664 346598 LS
144209 403485 L
149664 346598 LE
149322 350160 LS
149854 349848 LE
149322 350160 LS
149854 349848 LE
146867 375769 LS
151546 378854 LE
146867 375769 LS
151546 378854 LE
134179 380260 LS
127459 362971 L
134179 380260 LE
144209 403485 LS
134179 380260 L
144209 403485 LE
133845 383279 LS
134179 380260 LE
133845 383279 LS
134179 380260 LE
134417 384394 LS
134179 380260 LE
134417 384394 LS
134179 380260 LE
144209 403485 LS
154110 422791 L
144209 403485 LE
133845 383279 LS
127248 442919 LE
133845 383279 LS
127248 442919 LE
137539 438659 LS
127248 442919 LE
137539 438659 LS
127248 442919 LE
134417 384394 LS
138417 453910 LE
134417 384394 LS
138417 453910 LE
137539 438659 LS
141396 437063 LE
137539 438659 LS
141396 437063 LE
139866 455336 LS
144209 403485 LE
139866 455337 LS
144209 403485 LE
141396 437063 LS
146061 435132 LE
141396 437063 LS
146061 435132 LE
147694 463040 LS
144209 403485 LE
147694 463040 LS
144209 403485 LE
146061 435132 LS
152991 432264 LE
146061 435132 LS
152991 432264 LE
149664 346598 LS
154110 422791 L
149664 346598 LE
149854 349848 LS
151091 349123 LE
149854 349848 LS
151091 349123 LE
151546 378854 LS
158742 383599 LE
151546 378854 LS
158742 383599 LE
160789 366274 LS
154110 422791 L
160789 366274 LE
158742 383599 LS
161296 385283 LE
158742 383599 LS
161296 385283 LE
157550 430377 LS
162444 428351 LE
157550 430377 LS
162444 428351 LE
154110 422791 LS
162808 441974 L
154110 422791 LE
153274 432146 LS
152991 432264 LE
153274 432146 LS
152991 432264 LE
150285 465591 LS
154110 422791 LE
150285 465591 LS
154110 422791 LE
153274 432146 LS
154622 431589 LE
153274 432146 LS
154622 431589 LE
156210 458907 LS
154110 422791 LE
156210 458907 LS
154110 422791 LE
154622 431589 LS
157550 430377 LE
154622 431589 LS
157550 430377 LE
160789 366274 LS
162808 441974 L
160789 366274 LE
161296 385283 LS
164438 387355 LE
161296 385283 LS
164438 387355 LE
162444 428351 LS
169206 425553 LE
162444 428351 LS
169206 425553 LE
160789 366274 LS
170482 422276 L
160789 366274 LE
164438 387355 LS
170564 391394 LE
164438 387355 LS
170564 391394 LE
152686 467953 LS
127248 442919 LE
152686 467953 LS
127248 442919 L
139055 465014 L
127248 442919 LE
138417 453910 LS
139055 465014 LE
138417 453910 LS
139055 465014 LE
139866 455336 LS
139055 465014 LE
139866 455337 LS
139055 465014 LE
147836 480400 LS
139055 465014 LE
147836 480400 LS
139055 465014 LE
138936 467460 LS
139055 465014 LE
138936 467460 LS
139055 465014 LE
139240 467911 LS
139055 465014 LE
139240 467911 LS
139055 465014 LE
147694 463040 LS
148596 478451 LE
147694 463040 LS
148596 478451 LE
150285 465591 LS
149297 476651 LE
150285 465591 LS
149297 476651 LE
162808 441974 LS
170482 422276 L
162808 441974 LE
147836 480400 LS
148809 482106 LE
147836 480400 LS
148809 482106 LE
148596 478451 LS
148809 482106 LE
148596 478451 LS
148809 482106 LE
149297 476651 LS
148809 482106 LE
149297 476651 LS
148809 482106 LE
169206 425553 LS
170475 425027 LE
169206 425553 LS
170475 425027 LE
156982 472181 LS
156210 458907 LE
156982 472181 LS
156210 458907 LE
160099 475248 LS
152686 467953 LE
160099 475248 LS
152686 467953 LE
156982 472181 LS
158384 496308 LE
156982 472181 LS
158384 496308 L
162808 441974 L
158384 496308 LE
167878 482905 LS
162808 441974 LE
167878 482905 LS
162808 441974 LE
160099 475248 LS
170316 485304 LE
160099 475248 LS
170316 485304 LE
167878 482905 LS
170272 502223 LE
167878 482905 LS
170272 502223 L
158384 496308 L
170272 502223 LE
168999 512053 LS
170272 502223 LE
168999 512053 LS
170272 502223 LE
158384 496308 LS
148809 482106 L
158384 496308 LE
138936 467460 LS
136228 522744 LE
138936 467460 LS
136228 522744 LE
139240 467911 LS
142724 522659 LE
139240 467911 LS
142724 522659 LE
145943 522616 LS
148809 482106 LE
145943 522616 LS
148809 482106 LE
150951 522550 LS
148809 482106 LE
150951 522550 LS
148809 482106 LE
156054 522483 LS
158384 496308 LE
156054 522483 LS
158384 496308 LE
159469 522438 LS
158384 496308 LE
159469 522438 LS
158384 496308 LE
168999 512053 LS
167668 522330 LE
168999 512053 LS
167668 522330 LE
163604 182534 LS
170904 262381 LE
163604 182534 LS
170904 262381 LE
166984 219503 LS
171013 221195 LE
166984 219503 LS
171013 221195 LE
169993 252419 LS
170932 251740 LE
169993 252419 LS
170932 251740 LE
170904 262381 LS
171115 182434 LE
170693 342329 LS
170904 262381 LE
170219 522296 LS
170272 502223 LE
170482 422276 LS
170272 502223 LE
171115 182434 LS
170904 262381 L
171115 182434 LE
170482 422276 LS
170693 342329 L
170904 262381 L
170693 342329 LE
170219 522296 LS
170272 502223 LE
170219 522296 LS
170272 502223 LE
170693 342329 LS
170482 422276 LE
170272 502223 LS
170482 422276 L
170272 502223 LE
171013 221195 LS
197682 232397 LE
171013 221195 LS
197682 232397 LE
202603 182019 LS
197682 232397 LE
202603 182019 LS
197682 232397 LE
206731 226365 LS
197682 232397 LE
206731 226365 LS
197682 232397 LE
199593 233541 LS
197682 232397 LE
199593 233541 LS
197682 232397 LE
170932 251740 LS
197682 232397 LE
170932 251740 LS
197682 232397 LE
197708 235436 LS
197682 232397 LE
197708 235436 LS
197682 232397 LE
251059 181802 LS
250761 181384 LE
251059 181802 LS
250761 181384 LE
170904 262381 LS
251484 181374 L
170904 262381 LE
249900 197589 LS
251396 182275 LE
249900 197589 LS
251396 182275 LE
206731 226365 LS
258316 191978 LE
206731 226365 LS
258316 191978 LE
243803 259995 LS
249900 197589 LE
243803 259995 LS
249900 197589 LE
199593 233541 LS
265310 272864 LE
199593 233541 LS
265310 272864 LE
198040 273780 LS
170904 262381 LE
198041 273780 LS
170904 262381 LE
198442 320032 LS
197708 235436 LE
198442 320032 LS
197708 235436 LE
240809 290639 LS
243803 259995 LE
240809 290639 LS
243803 259995 LE
239844 291339 LS
265310 272864 LE
239844 291339 LS
265310 272864 LE
240809 290639 LS
240706 291701 LE
240809 290639 LS
240706 291701 LE
198040 273780 LS
240706 291701 LE
198041 273780 LS
240706 291701 LE
239844 291339 LS
199441 320653 LE
239844 291339 LS
199441 320653 LE
200102 321063 LS
240706 291701 LE
200102 321063 LS
240706 291701 LE
265448 275208 LS
240706 291701 LE
265448 275208 LS
240706 291701 LE
241181 346574 LS
240706 291701 LE
241181 346574 LS
240706 291701 LE
267359 307650 LS
240706 291701 LE
267359 307650 LS
240706 291701 LE
270424 359672 LS
266665 362400 LE
270424 359672 LS
266665 362400 LE
251059 181802 LS
258316 191978 LE
251059 181802 LS
258316 191978 LE
251396 182275 LS
251484 181374 LE
251396 182275 LS
251484 181374 LE
258216 190813 LS
251484 181374 LE
258216 190813 LS
251484 181374 LE
265310 272864 LS
258316 191978 L
265310 272864 LE
258591 191339 LS
258216 190813 LE
258591 191339 LS
258216 190813 LE
260276 187421 LS
258316 191978 LE
260276 187421 LS
258316 191978 LE
258591 191339 LS
259220 192221 LE
258591 191339 LS
259220 192221 LE
260580 192586 LS
258316 191978 LE
260580 192586 LS
258316 191978 LE
259220 192221 LS
260679 194268 LE
259220 192221 LS
260679 194268 LE
270733 364926 LS
265310 272864 L
270733 364926 LE
260276 187421 LS
262941 181223 LE
260276 187421 LS
262941 181223 LE
296238 244128 LS
260679 194268 LE
296238 244128 LS
260679 194268 LE
324581 197228 LS
319755 208455 LE
324581 197228 LS
319755 208455 LE
316741 180513 LS
331300 211551 LE
316741 180513 LS
331300 211551 LE
324581 197228 LS
331854 180314 LE
324581 197228 LS
331854 180314 LE
338426 194326 LS
331854 180314 LE
338426 194326 LS
331854 180314 LE
344291 180150 LS
331300 211551 LE
344291 180150 LS
331300 211551 LE
338426 194326 LS
341890 201711 LE
338426 194326 LS
341890 201711 LE
260580 192586 LS
331300 211551 LE
260580 192586 LS
331300 211551 LE
319755 208455 LS
309858 231473 LE
319755 208455 LS
309858 231473 LE
331300 211551 LS
265310 272864 L
331300 211551 LE
267232 274019 LS
265310 272864 LE
267232 274019 LS
265310 272864 LE
265448 275208 LS
301340 251283 LE
265448 275208 LS
301340 251283 LE
305283 296881 LS
267232 274019 LE
305283 296881 LS
267232 274019 LE
308334 332168 LS
301340 251283 L
308334 332168 LE
330200 311851 LS
334749 307624 LE
330200 311851 LS
334749 307624 LE
305283 296881 LS
333556 313868 LE
305283 296881 LS
333556 313868 LE
330200 311851 LS
308334 332168 LE
330200 311851 LS
308334 332168 LE
267359 307650 LS
308334 332168 LE
267359 307650 LS
308334 332168 LE
270424 359672 LS
308334 332168 LE
270424 359672 LS
308334 332168 LE
333556 313868 LS
335375 314961 LE
333556 313868 LS
335375 314961 LE
308542 335702 LS
270733 364926 LE
308542 335702 LS
270733 364926 LE
311764 390407 LS
308334 332168 LE
311764 390407 LS
308334 332168 LE
311023 333784 LS
308334 332168 LE
311023 333784 LS
308334 332168 LE
308542 335702 LS
335375 314961 LE
308542 335702 LS
335375 314961 LE
311023 333784 LS
338382 350222 LE
311023 333784 LS
338382 350222 LE
296238 244128 LS
301340 251283 LE
296238 244128 LS
301340 251283 LE
309858 231473 LS
301340 251283 LE
309858 231473 LS
301340 251283 LE
330614 259133 LS
301340 251283 LE
330614 259133 LS
301340 251283 LE
342722 401099 LS
335375 314961 LE
342722 401099 LS
335375 314961 LE
6999 6999 6999 C
349981 357190 LS
350000 350000 LE
9999 9999 9999 C
359262 362767 LS
338382 350222 LE
359262 362767 LS
338382 350222 LE
6999 6999 6999 C
349981 357190 LS
349878 396127 LE
9999 9999 9999 C
371482 379611 LS
352220 394500 LE
371482 379611 LS
352219 394501 LE
6999 6999 6999 C
350000 350000 LS
342548 339728 LE
6999 8999 8999 C
(Z) 342548 339728 S
9999 9999 9999 C
344601 207490 LS
341890 201711 LE
344601 207490 LS
341890 201711 LE
331300 211551 LS
402444 189834 L
331300 211551 LE
333202 259827 LS
331300 211551 LE
333202 259827 LS
331300 211551 LE
330614 259133 LS
374323 270855 LE
330614 259133 LS
374323 270855 LE
335074 307322 LS
334749 307624 LE
335074 307322 LS
334749 307624 LE
333202 259827 LS
335375 314961 LE
333202 259827 LS
335375 314961 LE
335074 307322 LS
374323 270855 LE
335074 307322 LS
374323 270855 LE
356773 233439 LS
374323 270855 LE
356773 233439 LS
374323 270855 LE
381141 254378 LS
331300 211551 LE
381141 254378 LS
331300 211551 LE
356773 233439 LS
344601 207490 LE
356773 233439 LS
344601 207490 LE
401943 204099 LS
374323 270855 LE
401943 204099 LS
374323 270855 LE
374976 287408 LS
374323 270855 LE
374976 287408 LS
374323 270855 LE
385260 280252 LS
374323 270855 LE
385260 280252 LS
374323 270855 LE
393503 265000 LS
374323 270855 LE
393503 265000 LS
374323 270855 LE
381141 254378 LS
399623 270259 LE
381141 254378 LS
399623 270259 LE
393503 265000 LS
399875 263055 LE
393503 265000 LS
399875 263055 LE
335375 314961 LS
399623 270259 L
335375 314961 LE
374976 287408 LS
377180 343344 LE
374976 287408 LS
377180 343344 LE
385260 280252 LS
398862 291940 LE
385260 280252 LS
398862 291940 LE
397503 179448 LS
402444 189834 LE
397503 179448 LS
402444 189834 LE
399623 270259 LS
402444 189834 L
399623 270259 LE
409447 179291 LS
402444 189834 LE
409447 179291 LS
402444 189834 LE
400175 293068 LS
398862 291940 LE
400175 293068 LS
398862 291940 LE
401535 349320 LS
399623 270259 LE
401535 349320 LS
399623 270259 LE
400175 293068 LS
442647 329563 LE
400175 293068 LS
442647 329563 LE
443620 301808 LS
442647 329563 LE
443620 301808 LS
442647 329563 LE
463256 315888 LS
399623 270259 LE
463256 315888 LS
399623 270259 LE
419515 257060 LS
399875 263055 LE
419515 257060 LS
399875 263055 LE
438356 244559 LS
399623 270259 LE
438356 244559 LS
399623 270259 LE
419515 257060 LS
445468 249138 LE
419515 257060 LS
445468 249138 LE
443620 301808 LS
445468 249138 LE
443620 301808 LS
445468 249138 LE
463171 260536 LS
445468 249138 LE
463171 260536 LS
445468 249138 LE
406710 192580 LS
402444 189834 LE
406709 192580 LS
402444 189834 LE
401943 204099 LS
412223 179254 LE
401943 204099 LS
412223 179254 LE
423796 203581 LS
442106 242070 LE
423796 203581 LS
442106 242070 LE
460172 227002 LS
406710 192580 LE
460172 227002 LS
406709 192580 LE
423796 203581 LS
412223 179254 LE
423796 203581 LS
412223 179254 LE
456512 232512 LS
462020 224219 LE
456512 232512 LS
462020 224219 LE
460172 227002 LS
462529 228519 LE
460172 227002 LS
462529 228519 LE
438356 244559 LS
462529 228519 LE
438356 244559 LS
462529 228519 LE
442106 242070 LS
445468 249138 LE
442106 242070 LS
445468 249138 LE
456512 232512 LS
445468 249138 LE
456512 232512 LS
445468 249138 LE
464266 315218 LS
442647 329563 LE
464266 315218 LS
442647 329563 LE
463256 315888 LS
464295 316633 LE
463256 315888 LS
464295 316633 LE
444142 330635 LS
442647 329563 LE
444142 330635 LS
442647 329563 LE
414497 349149 LS
442647 329563 LE
414497 349149 LS
442647 329563 LE
442697 331639 LS
442647 329563 LE
442697 331639 LS
442647 329563 LE
456636 178668 LS
462529 228519 LE
456636 178668 LS
462529 228519 LE
462020 224219 LS
462430 223602 LE
462020 224219 LS
462430 223602 LE
462529 228519 LS
464295 316633 L
462529 228519 LE
462430 223602 LS
465722 218645 LE
462430 223602 LS
465722 218645 LE
465599 227115 LS
462529 228519 LE
465599 227115 LS
462529 228519 LE
463171 260536 LS
465094 261774 LE
463171 260536 LS
465094 261774 LE
464266 315218 LS
464316 315185 LE
464266 315218 LS
464316 315185 LE
465546 230736 LS
462529 228519 LE
465546 230736 LS
462529 228519 LE
6999 6999 6999 C
386278 349521 LS
417553 349108 LE
9999 9999 9999 C
401746 358021 LS
400289 359034 LE
401746 358021 LS
400289 359034 LE
401535 349320 LS
401795 360056 LE
401535 349320 LS
401795 360056 LE
401746 358021 LS
414497 349149 LE
401746 358021 LS
414497 349149 LE
401795 360056 LS
335375 314961 L
401795 360056 LE
6999 6999 6999 C
377428 349638 LS
350000 350000 LE
9999 9999 9999 C
377180 343344 LS
378399 374265 LE
377180 343344 LS
378399 374265 LE
6999 6999 6999 C
377428 349638 LS
386278 349521 LE
9999 9999 9999 C
400289 359034 LS
378399 374265 LE
400289 359034 LS
378399 374265 LE
379889 375276 LS
378399 374265 LE
379889 375276 LS
378399 374265 LE
359262 362767 LS
378399 374265 LE
359262 362767 LS
378399 374265 LE
371482 379611 LS
378399 374265 LE
371482 379611 LS
378399 374265 LE
378564 376197 LS
378399 374265 LE
378564 376197 LS
378399 374265 LE
401795 360056 LS
464295 316633 L
401795 360056 LE
444142 330635 LS
446397 332253 LE
444142 330635 LS
446397 332253 LE
442697 331639 LS
442778 334991 LE
442697 331639 LS
442778 334991 LE
6999 6999 6999 C
417553 349108 LS
419602 349081 LE
6999 8999 8999 C
(X) 419602 349081 S
9999 9999 9999 C
342781 401796 LS
337133 406162 LE
342781 401796 LS
337133 406162 LE
342722 401099 LS
343490 410109 LE
342722 401099 LS
343490 410109 LE
6999 6999 6999 C
349877 396311 LS
349878 396127 LE
9999 9999 9999 C
342781 401796 LS
352220 394500 LE
342781 401796 LS
352219 394501 LE
349855 404645 LS
343490 410109 LE
349855 404645 LS
343490 410109 LE
6999 6999 6999 C
349877 396311 LS
349854 405295 LE
9999 9999 9999 C
382221 376860 LS
401795 360056 LE
382221 376860 LS
401795 360056 LE
379889 375276 LS
384970 378727 LE
379889 375276 LS
384970 378727 LE
378866 379740 LS
378564 376197 LE
378866 379740 LS
378564 376197 LE
382221 376860 LS
349855 404645 LE
382221 376860 LS
349855 404645 LE
378866 379740 LS
379155 383126 LE
378866 379740 LS
379155 383126 LE
402018 365829 LS
401795 360056 LE
402018 365829 LS
401795 360056 LE
405755 363001 LS
401795 360056 LE
405755 363001 LS
401795 360056 LE
270733 364926 LS
343490 410109 L
270733 364926 LE
170788 306383 LS
198453 321370 LE
170788 306383 LS
198453 321370 LE
198442 320032 LS
198453 321370 LE
198442 320032 LS
198453 321370 LE
199441 320653 LS
198453 321370 LE
199441 320653 LS
198453 321370 LE
170706 337629 LS
198453 321370 LE
170706 337629 LS
198453 321370 LE
198486 322231 LS
170693 342329 LE
198486 322231 LS
170693 342329 LE
199837 358116 LS
198453 321370 LE
199837 358116 LS
198453 321370 LE
199121 321772 LS
198453 321370 LE
199121 321772 LS
198453 321370 LE
198486 322231 LS
200102 321063 LE
198486 322231 LS
200102 321063 LE
241186 347121 LS
199121 321772 LE
241186 347121 LS
199121 321772 LE
241181 346574 LS
241477 380674 LE
241181 346574 LS
241477 380674 LE
266608 362440 LS
266665 362400 LE
266608 362440 LS
266665 362400 LE
241186 347121 LS
269559 364218 LE
241186 347121 LS
269559 364218 LE
266608 362440 LS
241477 380674 LE
266608 362440 LS
241477 380674 L
170693 342329 L
241477 380674 LE
199837 358116 LS
201551 403639 LE
199837 358116 LS
201551 403639 LE
201886 403873 LS
241477 380674 LE
201886 403873 LS
241477 380674 LE
269559 364218 LS
270733 364926 LE
269559 364218 LS
270733 364926 LE
244792 382671 LS
270733 364926 LE
244792 382671 LS
270733 364926 LE
274220 400405 LS
241477 380674 LE
274220 400405 LS
241477 380674 LE
241634 384832 LS
241477 380674 LE
241634 384832 LS
241477 380674 LE
244792 382671 LS
207788 407984 LE
244792 382671 LS
207788 407984 LE
241634 384832 LS
243440 432819 LE
241634 384832 LS
243440 432819 LE
278905 448071 LS
272059 452754 LE
278905 448071 LS
272059 452754 LE
270733 364926 LS
279903 458218 L
270733 364926 LE
311764 390407 LS
313757 424230 LE
311764 390407 LS
313757 424230 LE
337133 406162 LS
313757 424230 LE
337133 406162 LS
313757 424230 LE
274220 400405 LS
313757 424230 LE
274220 400405 LS
313757 424230 LE
319836 428005 LS
313757 424230 LE
319836 428005 LS
313757 424230 LE
278905 448071 LS
313757 424230 LE
278905 448071 LS
313757 424230 LE
314523 432025 LS
313757 424230 LE
314523 432025 LS
313757 424230 LE
279903 458218 LS
343490 410109 L
279903 458218 LE
446397 332253 LS
455013 338430 LE
446397 332253 LS
455013 338430 LE
442778 334991 LS
443445 362567 LE
442778 334991 LS
443445 362567 LE
405755 363001 LS
433389 383550 LE
405755 363001 LS
433389 383550 LE
352013 447988 LS
319836 428005 LE
352013 447988 LS
319836 428005 LE
314523 432025 LS
319832 486031 LE
314523 432025 LS
319831 486031 LE
359320 480463 LS
343490 410109 LE
359320 480463 LS
343490 410109 LE
6999 6999 6999 C
349822 417306 LS
349854 405295 LE
9999 9999 9999 C
384970 378727 LS
423246 404714 LE
384970 378727 LS
423246 404714 LE
379155 383126 LS
385823 461318 LE
379155 383126 LS
385823 461318 LE
6999 8999 8999 C
(Y) 349817 419236 S
9999 9999 9999 C
402018 365829 LS
404989 442809 LE
402018 365829 LS
404989 442809 LE
343490 410109 LS
404989 442809 L
343490 410109 LE
6999 6999 6999 C
349822 417306 LS
349817 419236 LE
9999 9999 9999 C
352013 447988 LS
380116 465440 LE
352013 447988 LS
380116 465440 LE
401569 449943 LS
404989 442809 LE
401569 449943 LS
404989 442809 LE
406882 446106 LS
404989 442809 LE
406882 446106 LS
404989 442809 LE
455013 338430 LS
463885 344792 LE
455013 338430 LS
463885 344792 LE
444146 391549 LS
443445 362567 LE
444146 391549 LS
443445 362567 LE
433389 383550 LS
462999 405568 LE
433389 383550 LS
462999 405568 LE
443213 418270 LS
423246 404714 LE
443213 418270 LS
423246 404714 LE
444768 417272 LS
404989 442809 LE
444768 417272 LS
404989 442809 LE
443213 418270 LS
444348 419041 LE
443213 418270 LS
444348 419041 LE
444146 391549 LS
444803 418712 LE
444146 391549 LS
444803 418713 LE
444768 417272 LS
462999 405568 LE
444768 417272 LS
462999 405568 L
464295 316633 L
462999 405568 LE
465722 218645 LS
492593 178194 LE
465722 218645 LS
492593 178194 LE
496694 212889 LS
492593 178194 LE
496694 212889 LS
492593 178194 LE
517961 203159 LS
465599 227115 LE
517961 203159 LS
465599 227115 LE
465094 261774 LS
505553 287823 LE
465094 261774 LS
505553 287823 LE
501967 257487 LS
505553 287823 LE
501967 257487 LS
505553 287823 LE
525368 274676 LS
465546 230736 LE
525368 274676 LS
465546 230736 LE
501967 257487 LS
496694 212889 LE
501967 257487 LS
496694 212889 LE
464316 315185 LS
505553 287823 LE
464316 315185 LS
505553 287823 LE
528792 277191 LS
505553 287823 LE
528792 277191 LS
505553 287823 LE
505636 291970 LS
464295 316633 LE
505636 291970 LS
464295 316633 LE
506666 343380 LS
505553 287823 LE
506666 343380 LS
505553 287823 LE
508705 290139 LS
505553 287823 LE
508705 290139 LS
505553 287823 LE
505636 291970 LS
529517 277723 LE
505636 291970 LS
529517 277723 LE
508705 290139 LS
529444 305372 LE
508705 290139 LS
529444 305372 LE
525368 274676 LS
529517 277723 LE
525368 274676 LS
529517 277723 LE
528792 277191 LS
529519 276859 LE
528792 277191 LS
529519 276859 LE
529683 214695 LS
492593 178194 LE
529683 214695 LS
492593 178194 LE
517961 203159 LS
529727 197776 LE
517961 203159 LS
529727 197776 LE
464295 316633 LS
529306 357671 L
464295 316633 LE
506666 343380 LS
507272 373587 LE
506666 343380 LS
507272 373587 LE
463885 344792 LS
505663 374749 LE
463885 344792 LS
505663 374749 LE
529306 357671 LS
462999 405568 L
529306 357671 LE
361151 488602 LS
343114 502249 LE
361151 488602 LS
343114 502249 LE
359320 480463 LS
368145 519685 LE
359320 480463 LS
368145 519685 LE
507272 373587 LS
507319 375937 LE
507272 373587 LS
507319 375937 LE
529292 362828 LS
507319 375937 LE
529292 362828 LS
507319 375937 LE
529221 389763 LS
507319 375937 LE
529221 389763 LS
507319 375937 LE
505663 374749 LS
507319 375937 LE
505663 374749 LS
507319 375937 LE
463983 406046 LS
507319 375937 LE
463983 406046 LS
507319 375937 LE
506579 426700 LS
507319 375937 LE
506579 426700 LS
507319 375937 LE
462999 405568 LS
529095 437618 L
462999 405568 LE
385823 461318 LS
386514 469413 LE
385823 461318 LS
386514 469413 LE
380116 465440 LS
386514 469413 LE
380116 465440 LS
386514 469413 LE
361151 488602 LS
386514 469413 LE
361151 488602 LS
386514 469413 LE
396240 461064 LS
386514 469413 LE
396240 461064 LS
386514 469413 LE
391076 471839 LS
386514 469413 LE
391076 471839 LS
386514 469413 LE
388343 477541 LS
386514 469413 LE
388343 477541 LS
386514 469413 LE
401569 449943 LS
368145 519685 LE
401569 449943 LS
368145 519685 LE
444348 419041 LS
444819 419361 LE
444348 419041 LS
444819 419361 LE
444803 418712 LS
444819 419361 LE
444803 418713 LS
444819 419361 LE
462836 406843 LS
462999 405568 LE
462836 406843 LS
462999 405568 LE
463983 406046 LS
444819 419361 LE
463983 406046 LS
444819 419361 LE
409121 450006 LS
406882 446106 LE
409121 450006 LS
406882 446106 LE
396240 461064 LS
444819 419361 LE
396240 461064 LS
444819 419361 LE
435091 495242 LS
391076 471839 LE
435091 495242 LS
391076 471839 LE
388343 477541 LS
397738 519295 LE
388343 477541 LS
397738 519295 LE
443928 510635 LS
440046 518737 LE
443928 510635 LS
440046 518737 LE
409121 450006 LS
448515 518625 LE
409121 450006 LS
448515 518625 LE
448013 502113 LS
444819 419361 L
448013 502113 LE
459804 430504 LS
462836 406843 LE
459804 430504 LS
462836 406843 LE
503701 463146 LS
444819 419361 LE
503701 463146 LS
444819 419361 LE
450865 500282 LS
448013 502113 LE
450865 500282 LS
448013 502113 LE
459804 430504 LS
450463 503416 LE
459804 430504 LS
450463 503416 LE
450865 500282 LS
494847 472047 LE
450865 500282 LS
494847 472047 LE
459084 507999 LS
506083 460751 LE
459084 507999 LS
506083 460751 LE
503701 463146 LS
506023 464873 LE
503701 463146 LS
506023 464873 LE
494847 472047 LS
506023 464873 LE
494847 472047 LS
506023 464873 LE
499222 517956 LS
506023 464873 LE
499222 517956 LS
506023 464873 LE
435091 495242 LS
448013 502113 LE
435091 495242 LS
448013 502113 LE
443928 510635 LS
448013 502113 LE
443928 510635 LS
448013 502113 LE
450153 505840 LS
448013 502113 LE
450153 505840 LS
448013 502113 LE
450463 503416 LS
448515 518625 LE
450463 503416 LS
448515 518625 LE
450153 505840 LS
454207 512902 LE
450153 505840 LS
454207 512902 LE
459084 507999 LS
448515 518625 LE
459084 507999 LS
448515 518625 LE
454207 512902 LS
457425 518507 LE
454207 512902 LS
457425 518507 LE
506579 426700 LS
506023 464873 LE
506579 426700 LS
506023 464873 LE
506083 460751 LS
529095 437618 LE
506083 460751 LS
529095 437618 LE
529067 448226 LS
506023 464873 LE
529067 448226 LS
506023 464873 LE
528994 476011 LS
506023 464873 LE
528994 476011 LS
506023 464873 LE
279903 458218 LS
368145 519685 L
279903 458218 LE
201567 404061 LS
195323 407720 LE
201567 404061 LS
195323 407720 LE
201551 403639 LS
201867 412035 LE
201551 403639 LS
201867 412035 LE
201567 404061 LS
201886 403873 LE
201567 404061 LS
201886 403873 LE
170564 391394 LS
201867 412035 LE
170564 391394 LS
201867 412035 LE
195323 407720 LS
170482 422276 LE
195323 407720 LS
170482 422276 LE
173043 423964 LS
170482 422276 LE
173043 423964 LS
170482 422276 LE
207788 407984 LS
201867 412035 LE
207788 407984 LS
201867 412035 LE
170475 425027 LS
201867 412035 LE
170475 425027 LS
201867 412035 LE
243588 436726 LS
201867 412035 LE
243588 436726 LS
201867 412035 LE
203482 444035 LS
201867 412035 LE
203482 444035 LS
201867 412035 LE
173043 423964 LS
244891 471339 LE
173043 423964 LS
244891 471339 LE
205679 487568 LS
182405 497201 LE
205679 487568 LS
182405 497201 LE
203482 444035 LS
207406 521805 LE
203482 444035 LS
207406 521805 LE
205679 487568 LS
244891 471339 LE
205679 487568 LS
244891 471339 LE
243440 432819 LS
244891 471339 LE
243440 432819 LS
244891 471339 LE
245741 488182 LS
244891 471339 LE
245741 488182 LS
244891 471339 LE
271415 453194 LS
272059 452754 LE
271415 453194 LS
272059 452754 LE
243588 436726 LS
279903 458218 LE
243588 436726 LS
279903 458218 LE
271415 453194 LS
244891 471339 LE
271415 453194 LS
244891 471339 LE
256864 478425 LS
244891 471339 LE
256864 478425 LS
244891 471339 LE
207406 521805 LS
279903 458218 L
207406 521805 LE
245741 488182 LS
247411 521278 LE
245741 488182 LS
247411 521278 LE
256864 478425 LS
284507 494784 LE
256864 478425 LS
284507 494784 LE
287776 520745 LS
279903 458218 L
287776 520745 LE
319832 486031 LS
322927 517522 LE
319831 486031 LS
322927 517522 LE
284507 494784 LS
322927 517522 LE
284507 494784 LS
322927 517522 LE
319732 520324 LS
322927 517522 LE
319732 520324 LS
322927 517522 LE
323274 520277 LS
322927 517522 LE
323274 520277 LS
322927 517522 LE
343114 502249 LS
322927 517522 LE
343114 502249 LS
322927 517522 LE
326815 520230 LS
322927 517522 LE
326815 520230 LS
322927 517522 LE
170316 485304 LS
207406 521805 LE
170316 485304 LS
207406 521805 LE
182405 497201 LS
170272 502223 LE
182405 497201 LS
170272 502223 LE
190398 522030 LS
170272 502223 LE
190398 522030 LS
170272 502223 LE
509601 177969 LS
529727 197776 LE
509601 177969 LS
529727 197776 LE
207406 521805 LS
127037 522866 LE
207406 521805 LS
287776 520745 LE
448515 518625 LS
528884 517565 LE
127037 522866 LS
207406 521805 L
127037 522866 LE
368145 519685 LS
287776 520745 L
207406 521805 L
287776 520745 LE
448515 518625 LS
528884 517565 L
448515 518625 LE
287776 520745 LS
368145 519685 LE
448515 518625 LS
368145 519685 L
448515 518625 LE
134548 522766 LS
135642 534726 LE
134548 522766 LS
135642 534726 LE
136228 522744 LS
135642 534726 LE
136228 522744 LS
135642 534726 LE
143403 533329 LS
142724 522659 LE
143403 533329 LS
142724 522659 LE
145208 533004 LS
135642 534726 LE
145208 533004 LS
135642 534726 LE
143477 534492 LS
135642 534726 LE
143477 534492 LS
135642 534726 LE
143527 535285 LS
143403 533329 LE
143527 535285 LS
143403 533329 LE
143477 534492 LS
145106 534444 LE
143477 534492 LS
145106 534444 LE
145039 535392 LS
135642 534726 LE
145039 535392 LS
135642 534726 LE
143527 535285 LS
144247 546587 LE
143527 535285 LS
144247 546587 LE
145943 522616 LS
144247 546587 LE
145943 522616 LS
144247 546587 LE
151445 531881 LS
145208 533004 LE
151445 531881 LS
145208 533004 LE
151570 534250 LS
145106 534444 LE
151570 534250 LS
145106 534444 LE
151655 535861 LS
145039 535392 LE
151655 535861 LS
145039 535392 LE
152188 545912 LS
144247 546587 LE
152188 545912 LS
144247 546587 LE
152234 546780 LS
144247 546587 LE
152234 546780 LS
144247 546587 LE
152297 547982 LS
144247 546587 LE
152297 547982 LS
144247 546587 LE
150951 522550 LS
152851 558448 LE
150951 522550 LS
152851 558448 LE
155278 531191 LS
156054 522483 LE
155278 531191 LS
156054 522483 LE
159799 530377 LS
159469 522438 LE
159799 530377 LS
159469 522438 LE
166789 529118 LS
167668 522330 LE
166789 529118 LS
167668 522330 LE
170202 528504 LS
170219 522296 LE
170202 528504 LS
170219 522296 LE
170202 528504 LS
170219 522296 LE
192836 524429 LS
190398 522030 LE
192836 524429 LS
190398 522030 LE
151445 531881 LS
207406 521805 LE
151445 531881 LS
207406 521805 LE
155015 534147 LS
151570 534250 LE
155015 534147 LS
151570 534250 LE
154842 536087 LS
151655 535861 LE
154842 536087 LS
151655 535861 LE
153981 545759 LS
152188 545912 LE
153981 545759 LS
152188 545912 LE
153887 546820 LS
152234 546780 LE
153887 546820 LS
152234 546780 LE
153761 548236 LS
152297 547982 LE
153761 548236 LS
152297 547982 LE
155278 531191 LS
152851 558448 LE
155278 531191 LS
152851 558448 LE
247910 531172 LS
247411 521278 LE
247910 531172 LS
247411 521278 LE
247158 531394 LS
207406 521805 L
247158 531394 LE
201305 532764 LS
247158 531394 LE
201305 532764 LS
247158 531394 LE
208551 539894 LS
216388 540450 LE
208551 539894 LS
216388 540450 LE
209694 541019 LS
216388 540450 LE
209694 541019 LS
216388 540450 LE
210790 542098 LS
192836 524429 LE
210790 542098 LS
192836 524429 LE
159949 534000 LS
159799 530377 LE
159949 534000 LS
159799 530377 LE
166181 533814 LS
155015 534147 LE
166181 533814 LS
155015 534147 LE
159949 534000 LS
160051 536457 LE
159949 534000 LS
160051 536457 LE
165787 536863 LS
166789 529118 LE
165787 536863 LS
166789 529118 LE
166181 533814 LS
170189 533694 LE
166181 533814 LS
170189 533694 LE
170180 537175 LS
154842 536087 LE
170180 537175 LS
154842 536087 LE
160051 536457 LS
160414 545212 LE
160051 536457 LS
160414 545212 LE
165787 536863 LS
164753 544843 LE
165787 536863 LS
164753 544843 LE
170161 544383 LS
170202 528504 LE
170161 544383 LS
170202 528504 LE
170161 544383 LS
170202 528504 LE
170189 533694 LS
201305 532764 LE
170189 533694 LS
201305 532764 LE
170180 537175 LS
208551 539894 LE
170180 537175 LS
208551 539894 LE
209694 541019 LS
153981 545759 LE
209694 541019 LS
153981 545759 LE
160488 546979 LS
160414 545212 LE
160488 546979 LS
160414 545212 LE
164464 547074 LS
153887 546820 LE
164464 547074 LS
153887 546820 LE
160488 546979 LS
160589 549419 LE
160488 546979 LS
160589 549419 LE
164082 550025 LS
153761 548236 LE
164082 550025 LS
153761 548236 LE
160589 549419 LS
160895 556783 LE
160589 549419 LS
160895 556783 LE
164753 544843 LS
163299 556075 LE
164753 544843 LS
163299 556075 LE
164464 547074 LS
170153 547212 LE
164464 547074 LS
170153 547212 LE
164082 550025 LS
170143 551075 LE
164082 550025 LS
170143 551075 LE
170161 544383 LS
170135 554063 LE
170161 544383 LS
170135 554063 LE
170161 544383 LS
170135 554063 LE
170153 547212 LS
191653 547730 LE
170153 547212 LS
191653 547730 LE
170143 551075 LS
176528 552182 LE
170143 551075 LS
176528 552182 LE
155169 558468 LS
152851 558448 LE
155169 558468 LS
152851 558448 LE
247158 531394 LS
216388 540450 L
247158 531394 LE
247911 531196 LS
247910 531172 LE
247911 531196 LS
247910 531172 LE
287776 520745 LS
247158 531394 L
287776 520745 LE
160967 558519 LS
160895 556783 LE
160967 558519 LS
160895 556783 LE
162980 558536 LS
155169 558468 LE
162980 558536 LS
155169 558468 LE
160967 558519 LS
161456 570309 LE
160967 558519 LS
161456 570309 LE
163299 556075 LS
161456 570309 LE
163299 556075 LS
161456 570309 LE
458165 519796 LS
457425 518507 LE
458165 519796 LS
457425 518507 LE
498361 524676 LS
499222 517956 LE
498361 524676 LS
499222 517956 LE
528856 528377 LS
448515 518625 LE
528856 528377 LS
448515 518625 LE
170123 558598 LS
162980 558536 LE
170123 558598 LS
162980 558536 LE
170097 568512 LS
161456 570309 LE
170097 568512 LS
161456 570309 LE
170092 570276 LS
161456 570309 LE
170092 570276 LS
161456 570309 LE
170089 571357 LS
170135 554063 LE
170089 571357 LS
170135 554063 LE
170089 571357 LS
170135 554063 LE
399020 524993 LS
397738 519295 LE
399020 524993 LS
397738 519295 LE
437246 524578 LS
440046 518737 LE
437246 524578 LS
440046 518737 LE
427267 529850 LS
448515 518625 L
427267 529850 LE
434733 529821 LS
427267 529850 LE
434733 529821 LS
427267 529850 LE
437246 524578 LS
434152 531033 LE
437246 524578 LS
434152 531033 LE
463856 529709 LS
434733 529821 LE
463856 529709 LS
434733 529821 LE
467952 536845 LS
458165 519796 LE
467952 536845 LS
458165 519796 LE
497733 529579 LS
498361 524676 LE
497733 529579 LS
498361 524676 LE
463856 529709 LS
528853 529459 LE
463856 529709 LS
528853 529459 LE
496665 537916 LS
497733 529579 LE
496665 537916 LS
497733 529579 LE
486490 540032 LS
528848 531222 LE
486490 540032 LS
528848 531222 LE
496289 540853 LS
496665 537916 LE
496289 540853 LS
496665 537916 LE
490995 540807 LS
528144 541130 LE
490995 540807 LS
528144 541130 LE
496289 540853 LS
496180 541698 LE
496289 540853 LS
496180 541698 LE
427267 529850 LS
368145 519685 L
427267 529850 LE
339794 529271 LS
326815 520230 LE
339794 529271 LS
326815 520230 LE
313473 525814 LS
287776 520745 LE
313473 525814 LS
287776 520745 LE
308097 530529 LS
319732 520324 LE
308097 530529 LS
319732 520324 LE
324238 527937 LS
323274 520277 LE
324238 527937 LS
323274 520277 LE
313473 525814 LS
336555 530367 LE
313473 525814 LS
336555 530367 LE
324238 527937 LS
324553 530435 LE
324238 527937 LS
324553 530435 LE
368145 519685 LS
336555 530367 L
368145 519685 LE
339794 529271 LS
341328 530339 LE
339794 529271 LS
341328 530339 LE
400147 530004 LS
399020 524993 LE
400147 530004 LS
399020 524993 LE
336555 530367 LS
427267 529850 L
336555 530367 LE
247921 531385 LS
247911 531196 LE
247921 531385 LS
247911 531196 LE
307907 530696 LS
308097 530529 LE
307907 530696 LS
308097 530529 LE
324561 530504 LS
324553 530435 LE
324561 530504 LS
324553 530435 LE
336555 530367 LS
247158 531394 L
336555 530367 LE
401710 536950 LS
400147 530004 LE
401710 536950 LS
400147 530004 LE
343117 531586 LS
341328 530339 LE
343117 531586 LS
341328 530339 LE
389800 540258 LS
336555 530367 L
389800 540258 LE
297384 539925 LS
307907 530696 LE
297384 539925 LS
307907 530696 LE
324932 533446 LS
324561 530504 LE
324932 533446 LS
324561 530504 LE
336555 530367 LS
299181 540268 L
336555 530367 LE
325791 540265 LS
299181 540268 LE
325791 540265 LS
299181 540268 LE
324932 533446 LS
326446 545472 LE
324932 533446 LS
326446 545472 LE
355573 540262 LS
343117 531586 LE
355573 540262 LS
343117 531586 LE
325791 540265 LS
389800 540258 LE
325791 540265 LS
389800 540258 LE
355573 540262 LS
364293 546336 LE
355573 540262 LS
364292 546336 LE
349473 549867 LS
299181 540268 L
349473 549867 LE
247928 531525 LS
247158 531394 LE
247928 531525 LS
247158 531394 LE
248375 540380 LS
247921 531385 LE
248375 540380 LS
247921 531385 LE
297350 539956 LS
247928 531525 LE
297349 539956 LS
247928 531525 LE
296988 540273 LS
297384 539925 LE
296988 540273 LS
297384 539925 LE
297350 539956 LS
299181 540268 LE
297349 539956 LS
299181 540268 LE
216388 540450 LS
299181 540268 L
216388 540450 LE
248375 540380 LS
248745 547711 LE
248375 540380 LS
248745 547711 LE
296988 540273 LS
296317 540862 LE
296988 540273 LS
296317 540862 LE
255713 549274 LS
216388 540450 L
255713 549274 LE
248745 547711 LS
248757 547946 LE
248745 547711 LS
248757 547946 LE
255713 549274 LS
299181 540268 L
255713 549274 LE
286504 549469 LS
255713 549274 LE
286504 549469 LS
255713 549274 LE
296317 540862 LS
281182 554137 LE
296317 540862 LS
281182 554137 LE
326982 549725 LS
326446 545472 LE
326982 549725 LS
326446 545472 LE
286504 549469 LS
349473 549867 LE
286504 549469 LS
349473 549867 LE
326982 549725 LS
327654 555066 LE
326982 549725 LS
327654 555066 LE
255713 549274 LS
309145 559476 L
255713 549274 LE
248815 549108 LS
248757 547946 LE
248815 549108 LS
248757 547946 LE
217137 548344 LS
255713 549274 LE
217137 548344 LS
255713 549274 LE
248815 549108 LS
248908 550934 LE
248815 549108 LS
248908 550934 LE
225555 556629 LS
255713 549274 LE
225555 556629 LS
255713 549274 LE
249323 559169 LS
228024 559059 LE
249323 559169 LS
228024 559059 LE
248908 550934 LS
249647 565588 LE
248908 550934 LS
249647 565588 LE
275293 559302 LS
281182 554137 LE
275293 559302 LS
281182 554137 LE
249323 559169 LS
309145 559476 LE
249323 559169 LS
309145 559476 LE
275293 559302 LS
264765 568536 LE
275293 559302 LS
264765 568536 LE
427267 529850 LS
389800 540258 L
427267 529850 LE
430686 530516 LS
427267 529850 LE
430686 530516 LS
427267 529850 LE
401710 536950 LS
401811 537397 LE
401710 536950 LS
401811 537397 LE
389800 540258 LS
349473 549867 L
309145 559476 LE
349473 549867 LS
389800 540258 LE
309145 559476 LS
349473 549867 LE
309145 559476 LS
271678 569885 L
309145 559476 LE
328209 559474 LS
312240 559476 LE
328209 559474 LS
312240 559476 LE
328616 562706 LS
327654 555066 LE
328616 562706 LS
327654 555066 LE
434083 531179 LS
434152 531033 LE
434083 531179 LS
434152 531033 LE
468560 537903 LS
467952 536845 LE
468560 537903 LS
467952 536845 LE
486490 540032 LS
483097 540738 LE
486490 540032 LS
483097 540738 LE
490995 540807 LS
483097 540738 LE
490995 540807 LS
483097 540738 LE
496017 542977 LS
496180 541698 LE
496017 542977 LS
496180 541698 LE
521852 547454 LS
483097 540738 LE
521852 547454 LS
483097 540738 LE
496017 542977 LS
495982 543251 LE
496017 542977 LS
495982 543251 LE
430686 530516 LS
483097 540738 LE
430686 530516 LS
483097 540738 LE
402469 540323 LS
401811 537397 LE
402469 540323 LS
401811 537397 LE
429633 540463 LS
434083 531179 LE
429633 540463 LS
434083 531179 LE
470149 540671 LS
468560 537903 LE
470149 540671 LS
468560 537903 LE
483097 540738 LS
389800 540258 L
483097 540738 LE
403023 542783 LS
402469 540323 LE
403023 542783 LS
402469 540323 LE
426384 547243 LS
429633 540463 LE
426384 547243 LS
429633 540463 LE
471773 543499 LS
470149 540671 LE
471773 543499 LS
470149 540671 LE
483097 540738 LS
443232 550460 L
483097 540738 LE
476226 551255 LS
443232 550460 LE
476226 551255 LS
443232 550460 LE
471773 543499 LS
479775 557437 LE
471773 543499 LS
479775 557437 LE
494898 551706 LS
495982 543251 LE
494898 551706 LS
495982 543251 LE
476226 551255 LS
507292 552004 LE
476226 551255 LS
507292 552004 LE
494898 551706 LS
494373 555807 LE
494898 551706 LS
494373 555807 LE
389800 540258 LS
443232 550460 L
389800 540258 LE
480580 558841 LS
479775 557437 LE
480580 558841 LS
479775 557437 LE
443232 550460 LS
482557 559284 L
443232 550460 LE
404695 550216 LS
403023 542783 LE
404695 550216 LS
403023 542783 LE
369544 549994 LS
364293 546336 LE
369544 549994 LS
364292 546336 LE
424897 550344 LS
426384 547243 LE
424897 550344 LS
426384 547243 LE
443232 550460 LS
349473 549867 L
443232 550460 LE
376869 555096 LS
399764 559466 LE
376869 555096 LS
399764 559466 LE
383145 559468 LS
369544 549994 LE
383145 559468 LS
369544 549994 LE
376869 555096 LS
349473 549867 LE
376869 555096 LS
349473 549867 LE
328209 559474 LS
399764 559466 LE
328209 559474 LS
399764 559466 LE
383145 559468 LS
383194 559502 LE
383145 559468 LS
383194 559502 LE
406464 558078 LS
404695 550216 LE
406464 558078 LS
404695 550216 LE
422815 554690 LS
399764 559466 LE
422815 554690 LS
399764 559466 LE
406464 558078 LS
406773 559451 LE
406464 558078 LS
406773 559451 LE
420548 559420 LS
424897 550344 LE
420548 559420 LS
424897 550344 LE
422815 554690 LS
443232 550460 LE
422815 554690 LS
443232 550460 LE
480837 559288 LS
399764 559466 LE
480837 559288 LS
399764 559466 LE
387722 562656 LS
383194 559502 LE
387722 562656 LS
383194 559502 LE
362390 569368 LS
399764 559466 L
362390 569368 LE
407056 560710 LS
406773 559451 LE
407056 560710 LS
406773 559451 LE
418957 562740 LS
399764 559466 LE
418957 562740 LS
399764 559466 LE
408884 568834 LS
407056 560710 LE
408884 568834 LS
407056 560710 LE
416076 568751 LS
396789 568972 LE
416076 568751 LS
396789 568972 LE
408884 568834 LS
411169 578989 LE
408884 568834 LS
411169 578989 LE
420548 559420 LS
411169 578989 LE
420548 559420 LS
411169 578989 LE
418957 562740 LS
451787 568341 LE
418957 562740 LS
451787 568341 LE
416076 568751 LS
451787 568341 LE
416076 568751 LS
451787 568341 LE
387722 562656 LS
411169 578989 LE
387722 562656 LS
411169 578989 LE
396789 568972 LS
362390 569368 LE
396789 568972 LS
362390 569368 LE
480580 558841 LS
481084 559718 LE
480580 558841 LS
481084 559718 LE
480837 559288 LS
482557 559284 LE
480837 559288 LS
482557 559284 LE
411169 578989 LS
451787 568341 L
411169 578989 LE
482557 559284 LS
451787 568341 L
482557 559284 LE
507292 552004 LS
517092 552240 LE
507292 552004 LS
517092 552240 LE
485456 567334 LS
451787 568341 LE
485456 567334 LS
451787 568341 LE
481084 559718 LS
491539 577929 LE
481084 559718 LS
491539 577929 LE
494053 558306 LS
494373 555807 LE
494053 558306 LS
494373 555807 LE
512630 556726 LS
482557 559284 LE
512630 556726 LS
482557 559284 LE
493825 560083 LS
494053 558306 LE
493825 560083 LS
494053 558306 LE
508272 561107 LS
482557 559284 LE
508272 561107 LS
482557 559284 LE
492925 567111 LS
485456 567334 LE
492925 567111 LS
485456 567334 LE
493825 560083 LS
491539 577929 LE
493825 560083 LS
491539 577929 LE
492925 567111 LS
502587 566822 LE
492925 567111 LS
502587 566822 LE
451787 568341 LS
491539 577929 L
451787 568341 LE
362390 569368 LS
411169 578989 L
362390 569368 LE
312240 559476 LS
309145 559476 LE
312240 559476 LS
309145 559476 LE
328666 563102 LS
309145 559476 LE
328666 563102 LS
309145 559476 LE
329478 569555 LS
328616 562706 LE
329478 569555 LS
328616 562706 LE
328666 563102 LS
362390 569368 LE
328666 563102 LS
362390 569368 LE
271678 569885 LS
362390 569368 L
271678 569885 LE
329478 569555 LS
330800 580049 LE
329478 569555 LS
330800 580049 LE
362390 569368 LS
330800 580049 L
362390 569368 LE
271678 569885 LS
330800 580049 L
271678 569885 LE
230954 561942 LS
271678 569885 LE
230954 561942 LS
271678 569885 LE
249868 569969 LS
239152 570010 LE
249868 569969 LS
239152 570010 LE
249647 565588 LS
250430 581110 LE
249647 565588 LS
250430 581110 LE
263191 569917 LS
264765 568536 LE
263191 569917 LS
264765 568536 LE
249868 569969 LS
271678 569885 LE
249868 569969 LS
271678 569885 LE
263191 569917 LS
250430 581110 LE
263191 569917 LS
250430 581110 LE
271678 569885 LS
250430 581110 L
271678 569885 LE
528824 540446 LS
491539 577929 LE
528824 540446 LS
491539 577929 LE
528144 541130 LS
528822 541136 LE
528144 541130 LS
528822 541136 LE
521852 547454 LS
528802 548659 LE
521852 547454 LS
528802 548659 LE
517092 552240 LS
528792 552523 LE
517092 552240 LS
528792 552523 LE
512630 556726 LS
528785 555352 LE
512630 556726 LS
528785 555352 LE
508272 561107 LS
528766 562560 LE
508272 561107 LS
528766 562560 LE
502587 566822 LS
528756 566040 LE
502587 566822 LS
528756 566040 LE
210790 542098 LS
250430 581110 LE
210790 542098 LS
250430 581110 LE
217137 548344 LS
191653 547730 LE
217137 548344 LS
191653 547730 LE
176528 552182 LS
215848 558996 LE
176528 552182 LS
215848 558996 LE
225555 556629 LS
215848 558996 LE
225555 556629 LS
215848 558996 LE
170123 558598 LS
215848 558996 LE
170123 558598 LS
215848 558996 LE
170097 568512 LS
215848 558996 LE
170097 568512 LS
215848 558996 LE
228024 559059 LS
215848 558996 LE
228024 559059 LS
215848 558996 LE
230954 561942 LS
215848 558996 LE
230954 561942 LS
215848 558996 LE
239152 570010 LS
170092 570276 LE
239152 570010 LS
170092 570276 LE
161456 570309 LS
250430 581110 L
161456 570309 LE
170089 571357 LS
170061 582170 LE
170089 571357 LS
170061 582170 LE
170089 571357 LS
170061 582170 LE
528743 571230 LS
491539 577929 LE
528743 571230 LS
491539 577929 LE
529780 177703 LS
529727 197776 LE
529517 277723 LS
529727 197776 LE
529095 437618 LS
528884 517565 LE
529095 437618 LS
529306 357671 LE
529780 177703 LS
529727 197776 LE
529780 177703 LS
529727 197776 LE
529517 277723 LS
529306 357671 LE
529517 277723 LS
529727 197776 L
529517 277723 LE
528884 517565 LS
529095 437618 L
528884 517565 LE
529306 357671 LS
529517 277723 LE
529095 437618 LS
529306 357671 L
529095 437618 LE
532331 177670 LS
529727 197776 LE
532331 177670 LS
529727 197776 LE
528856 528377 LS
537489 529425 LE
528856 528377 LS
537489 529425 LE
528853 529459 LS
537489 529425 LE
528853 529459 LS
537489 529425 LE
528848 531222 LS
537489 529425 LE
528848 531222 LS
537489 529425 LE
538458 530761 LS
528824 540446 LE
538458 530761 LS
528824 540446 LE
528822 541136 LS
546094 541286 LE
528822 541136 LS
546094 541286 LE
528802 548659 LS
554699 553147 LE
528802 548659 LS
554699 553147 LE
528792 552523 LS
554699 553147 LE
528792 552523 LS
554699 553147 LE
528785 555352 LS
554699 553147 LE
528785 555352 LS
554699 553147 LE
528766 562560 LS
563303 565008 LE
528766 562560 LS
563303 565008 LE
528756 566040 LS
563303 565008 LE
528756 566040 LS
563303 565008 LE
528743 571230 LS
563303 565008 LE
528743 571230 LS
563303 565008 LE
537489 529425 LS
528884 517565 LE
563303 565008 LS
571908 576869 LE
537489 529425 LS
528884 517565 L
537489 529425 LE
563303 565008 LS
571908 576869 L
563303 565008 L
554699 553147 LE
546094 541286 LS
537489 529425 LE
554699 553147 LS
546094 541286 LE
537489 529425 LS
546094 541286 L
554699 553147 L
563303 565008 LE
530003 447550 LS
529067 448226 LE
530003 447550 LS
529067 448226 LE
532773 477843 LS
528994 476011 LE
532773 477843 LS
528994 476011 LE
529095 437618 LS
537489 529425 L
529095 437618 LE
540824 177558 LS
541913 200409 LE
540824 177558 LS
541913 200409 LE
543949 177516 LS
541913 200409 LE
543949 177516 LS
541913 200409 LE
550863 202343 LS
549341 177445 LE
550863 202343 LS
549341 177445 LE
552201 202632 LS
554023 177383 LE
552201 202632 LS
554023 177383 LE
559320 204170 LS
557434 177338 LE
559320 204170 LS
557434 177338 LE
562208 204794 LS
563706 177256 LE
562208 204794 LS
563706 177256 LE
568087 206065 LS
565451 177233 LE
568087 206065 LS
565451 177233 LE
529727 197776 LS
541913 200409 L
529727 197776 LE
532663 217628 LS
529683 214695 LE
532663 217628 LS
529683 214695 LE
537835 252608 LS
529727 197776 L
537835 252608 LE
532663 217628 LS
540003 224852 LE
532663 217628 LS
540003 224852 LE
541913 200409 LS
537835 252608 L
541913 200409 LE
543925 228711 LS
544247 233248 LE
543925 228711 LS
544247 233248 LE
540003 224852 LS
545301 230066 LE
540003 224852 LS
545301 230066 LE
543925 228711 LS
541913 200409 LE
543925 228711 LS
541913 200409 LE
529854 276706 LS
529519 276859 LE
529854 276706 LS
529519 276859 LE
537835 252608 LS
529517 277723 L
537835 252608 LE
530000 439312 LS
529095 437618 LE
530000 439312 LS
529095 437618 LE
530931 361851 LS
529292 362828 LE
530931 361851 LS
529292 362828 LE
534051 392812 LS
529221 389763 LE
534051 392812 LS
529221 389763 LE
536026 374959 LS
529095 437618 L
536026 374959 LE
534051 392812 LS
534337 392992 LE
534051 392812 LS
534337 392992 LE
536026 374959 LS
529306 357671 L
536026 374959 LE
534987 359431 LS
530931 361851 LE
534987 359431 LS
530931 361851 LE
531467 306858 LS
536026 374959 LE
531467 306858 LS
536026 374959 LE
534987 359431 LS
537627 357856 LE
534987 359431 LS
537627 357856 LE
539550 312795 LS
529444 305372 LE
539550 312795 LS
529444 305372 LE
531467 306858 LS
529517 277723 LE
531467 306858 LS
529517 277723 LE
541280 318843 LS
529517 277723 L
541280 318843 LE
541022 313876 LS
541280 318843 LE
541022 313876 LS
541280 318843 LE
539550 312795 LS
541699 314373 LE
539550 312795 LS
541699 314373 LE
538874 272579 LS
529854 276706 LE
538874 272579 LS
529854 276706 LE
541022 313876 LS
537903 253908 LE
541022 313876 LS
537903 253908 LE
538874 272579 LS
545914 269359 LE
538874 272579 LS
545914 269359 LE
536026 374959 LS
541280 318843 L
536026 374959 LE
537166 394778 LS
534337 392992 LE
537166 394778 LS
534337 392992 LE
533177 445257 LS
530003 447550 LE
533177 445257 LS
530003 447550 LE
530000 439312 LS
540903 459713 LE
530000 439312 LS
540903 459713 LE
533177 445257 LS
539796 440476 LE
533177 445257 LS
539796 440476 LE
539866 480875 LS
540903 459713 LE
539866 480875 LS
540903 459713 L
536026 374959 L
540903 459713 LE
541758 314417 LS
541699 314373 LE
541758 314417 LS
541699 314373 LE
546658 269018 LS
545914 269359 LE
546658 269018 LS
545914 269359 LE
546738 268285 LS
541280 318843 L
546738 268285 LE
545880 400279 LS
537166 394778 LE
545880 400279 LS
537166 394778 LE
542689 438386 LS
539796 440476 LE
542689 438386 LS
539796 440476 LE
546056 398184 LS
536026 374959 L
546056 398184 LE
543420 354400 LS
537627 357856 LE
543420 354400 LS
537627 357856 LE
541280 318843 LS
546056 398184 L
541280 318843 LE
543420 354400 LS
550054 350442 LE
543420 354400 LS
550054 350442 LE
546056 398184 LS
540903 459713 L
546056 398184 LE
542327 482099 LS
540903 459713 LE
542327 482099 LS
540903 459713 LE
550011 485922 LS
550657 476805 LE
550011 485922 LS
550657 476805 LE
551170 486499 LS
550657 476805 LE
551170 486499 LS
550657 476805 L
540903 459713 L
550657 476805 L
560232 491007 L
550657 476805 LE
550669 350075 LS
550054 350442 LE
550669 350075 LS
550054 350442 LE
551511 341297 LS
546056 398184 L
551511 341297 LE
546190 400474 LS
545880 400279 LE
546190 400474 LS
545880 400279 LE
548176 434422 LS
542689 438386 LE
548176 434422 LS
542689 438386 LE
550657 476805 LS
546056 398184 L
550657 476805 LE
547728 401445 LS
546190 400474 LE
547728 401445 LS
546190 400474 LE
555958 417490 LS
546056 398184 L
555958 417490 LE
551978 349295 LS
551511 341297 LE
551978 349295 LS
551511 341297 LE
550669 350075 LS
554476 347804 LE
550669 350075 LS
554476 347804 LE
555300 406225 LS
547728 401445 LE
555300 406225 LS
547728 401445 LE
551978 349295 LS
555958 417490 LE
551978 349295 LS
555958 417490 LE
555300 406225 LS
556876 407219 LE
555300 406225 LS
556876 407219 LE
554877 429582 LS
548176 434422 LE
554877 429582 LS
548176 434422 LE
555958 417490 LS
550657 476805 L
555958 417490 LE
556589 428345 LS
554877 429582 LE
556589 428345 LS
554877 429582 LE
555958 417490 LS
560232 491007 L
555958 417490 LE
559821 426011 LS
556589 428345 LE
559821 426011 LS
556589 428345 LE
555958 417490 LS
564655 436673 L
555958 417490 LE
557151 407393 LS
556876 407219 LE
557151 407393 LS
556876 407219 LE
562191 364738 LS
555958 417490 LE
562191 364738 LS
555958 417490 LE
563989 411710 LS
557151 407393 LE
563989 411710 LS
557151 407393 LE
564284 422786 LS
562770 366009 LE
564284 422786 LS
562770 366009 LE
563989 411710 LS
572330 416975 LE
563989 411710 LS
572330 416975 LE
559821 426011 LS
572330 416975 LE
559821 426011 LS
572330 416975 LE
564284 422786 LS
564655 436673 LE
564284 422786 LS
564655 436673 LE
563960 368619 LS
572330 416975 LE
563960 368619 LS
572330 416975 LE
564655 436673 LS
572330 416975 L
564655 436673 L
560232 491007 L
564655 436673 L
572119 496922 L
564655 436673 LE
551511 341297 LS
541280 318843 L
551511 341297 LE
550157 320586 LS
551511 341297 LE
550157 320586 LS
551511 341297 LE
553094 322744 LS
541758 314417 LE
553094 322744 LS
541758 314417 LE
546782 268961 LS
546658 269018 LE
546782 268961 LS
546658 269018 LE
550157 320586 LS
546738 268285 LE
550157 320586 LS
546738 268285 LE
546782 268961 LS
547071 268829 LE
546782 268961 LS
547071 268829 LE
556400 284009 LS
551511 341297 L
556400 284009 LE
555010 347486 LS
554476 347804 LE
555010 347486 LS
554476 347804 LE
562636 360973 LS
551511 341297 L
562636 360973 LE
561242 343768 LS
555010 347486 LE
561242 343768 LS
555010 347486 LE
559946 327777 LS
553094 322744 LE
559946 327777 LS
553094 322744 LE
556400 284009 LS
562636 360973 L
556400 284009 LE
563296 342542 LS
561242 343768 LE
563296 342542 LS
561242 343768 LE
563726 330553 LS
562636 360973 LE
563726 330553 LS
562636 360973 LE
563296 342542 LS
572540 337028 LE
563296 342542 LS
572540 337028 LE
559946 327777 LS
572540 337028 LE
559946 327777 LS
572540 337028 LE
563726 330553 LS
564898 297838 LE
563726 330553 LS
564898 297838 LE
572540 337028 LS
562636 360973 L
572540 337028 LE
562191 364738 LS
562636 360973 LE
562191 364738 LS
562636 360973 LE
562770 366009 LS
562636 360973 LE
562770 366009 LS
562636 360973 LE
563960 368619 LS
562636 360973 LE
563960 368619 LS
562636 360973 LE
566189 299939 LS
572540 337028 LE
566189 299939 LS
572540 337028 LE
556400 284009 LS
546738 268285 L
556400 284009 LE
537903 253908 LS
537835 252608 LE
537903 253908 LS
537835 252608 LE
546738 268285 LS
537835 252608 L
546738 268285 LE
544247 233248 LS
546738 268285 LE
544247 233248 LS
546738 268285 LE
549631 234327 LS
546738 268285 LE
549631 234327 LS
546738 268285 LE
565059 293340 LS
556400 284009 L
565059 293340 LE
555103 265154 LS
547071 268829 LE
555103 265154 LS
547071 268829 LE
553227 237866 LS
556400 284009 LE
553227 237866 LS
556400 284009 LE
558035 263813 LS
555103 265154 LE
558035 263813 LS
555103 265154 LE
559627 244164 LS
556400 284009 LE
559627 244164 LS
556400 284009 LE
563078 261506 LS
558035 263813 LE
563078 261506 LS
558035 263813 LE
562153 246650 LS
565059 293340 LE
562153 246650 LS
565059 293340 LE
563078 261506 LS
572751 257081 LE
563078 261506 LS
572751 257081 L
565059 293340 L
572751 257081 LE
564898 297838 LS
565059 293340 LE
564898 297838 LS
565059 293340 LE
566189 299939 LS
565059 293340 LE
566189 299939 LS
565059 293340 LE
560232 491007 LS
572119 496922 L
560232 491007 LE
539847 481273 LS
532773 477843 LE
539847 481273 LS
532773 477843 LE
539866 480875 LS
537489 529425 LE
539866 480875 LS
537489 529425 LE
542352 482488 LS
539847 481273 LE
542352 482488 LS
539847 481273 LE
545005 524179 LS
538458 530761 LE
545005 524179 LS
538458 530761 LE
542327 482099 LS
546094 541286 LE
542327 482099 LS
546094 541286 LE
549992 486193 LS
542352 482488 LE
549992 486193 LS
542352 482488 LE
547480 521691 LS
550011 485922 LE
547480 521691 LS
550011 485922 LE
551184 486771 LS
549992 486193 LE
551184 486771 LS
549992 486193 LE
552752 516391 LS
551170 486499 LE
552752 516391 LS
551170 486499 LE
551184 486771 LS
560219 491151 LE
551184 486771 LS
560219 491151 LE
545005 524179 LS
558485 510628 LE
545005 524179 LS
558485 510628 LE
547480 521691 LS
546094 541286 LE
547480 521691 LS
546094 541286 LE
552752 516391 LS
554699 553147 LE
552752 516391 LS
554699 553147 L
560232 491007 L
554699 553147 LE
560219 491151 LS
560238 491161 LE
560219 491151 LS
560238 491161 LE
558485 510628 LS
560944 508156 LE
558485 510628 LS
560944 508156 LE
560232 491007 LS
563303 565008 L
560232 491007 LE
560238 491161 LS
572119 496922 LE
560238 491161 LS
572119 496922 LE
560944 508156 LS
572119 496922 LE
560944 508156 LS
572119 496922 LE
545301 230066 LS
572751 257081 LE
545301 230066 LS
572751 257081 LE
549631 234327 LS
551486 212546 LE
549631 234327 LS
551486 212546 LE
553227 237866 LS
551486 212546 LE
553227 237866 LS
551486 212546 LE
559627 244164 LS
560968 227610 LE
559627 244164 LS
560968 227610 LE
562153 246650 LS
560968 227610 LE
562153 246650 LS
560968 227610 L
572751 257081 L
560968 227610 L
551486 212546 L
560968 227610 LE
560733 224268 LS
560968 227610 LE
560733 224268 LS
560968 227610 LE
561123 224762 LS
560968 227610 LE
561123 224762 LS
560968 227610 LE
551486 212546 LS
541913 200409 L
551486 212546 LE
550863 202343 LS
551486 212546 LE
550863 202343 LS
551486 212546 LE
552201 202632 LS
551486 212546 LE
552201 202632 LS
551486 212546 LE
560733 224268 LS
559320 204170 LE
560733 224268 LS
559320 204170 LE
561123 224762 LS
562208 204794 LE
561123 224762 LS
562208 204794 LE
563303 565008 LS
572119 496922 L
563303 565008 LE
568087 206065 LS
572751 257081 LE
568087 206065 LS
572751 257081 L
572962 177133 LE
572119 496922 LS
571908 576869 LE
572330 416975 LS
572119 496922 LE
572330 416975 LS
572540 337028 LE
572751 257081 LS
572962 177133 L
572751 257081 LE
572119 496922 LS
571908 576869 L
572119 496922 LE
572330 416975 LS
572119 496922 L
572330 416975 LE
572751 257081 LS
572540 337028 L
572751 257081 LE
572330 416975 LS
572540 337028 L
572330 416975 LE
250430 581110 LS
170061 582170 LE
491539 577929 LS
571908 576869 LE
411169 578989 LS
491539 577929 LE
330800 580049 LS
250430 581110 LE
411169 578989 LS
330800 580049 LE
250430 581110 LS
170061 582170 L
250430 581110 LE
571908 576869 LS
491539 577929 L
571908 576869 LE
411169 578989 LS
491539 577929 L
411169 578989 LE
250430 581110 LS
330800 580049 L
250430 581110 LE
411169 578989 LS
330800 580049 L
411169 578989 LE
538543 129690 LS
529938 117829 LE
564357 165273 LS
572962 177133 LE
555753 153412 LS
564357 165273 LE
538543 129690 LS
529938 117829 L
538543 129690 LE
555753 153412 LS
547148 141551 LE
538543 129690 LS
547148 141551 L
538543 129690 LE
572962 177133 LS
564357 165273 L
572962 177133 LE
547148 141551 LS
555753 153412 LE
564357 165273 LS
555753 153412 L
564357 165273 LE
135642 534726 LS
127037 522866 LE
161456 570309 LS
170061 582170 LE
135642 534726 LS
127037 522866 L
135642 534726 LE
144247 546587 LS
152851 558448 LE
144247 546587 LS
135642 534726 L
144247 546587 LE
170061 582170 LS
161456 570309 L
170061 582170 LE
161456 570309 LS
152851 558448 L
144247 546587 LE
152851 558448 LS
161456 570309 LE
6999 6999 6999 C
665000 665000 LS
664942 686636 LE
665000 665000 LS
662671 661790 LE
6999 8999 8999 C
(Y) 664942 686636 S
(Z) 662671 661790 S
6999 6999 6999 C
665000 665000 LS
686750 664713 LE
6999 8999 8999 C
(X) 686750 664713 S
673700 664885 9999 0 0 672745 672255 9999 0 0 673677 673539 9999 0 0 ST
673700 664885 9999 0 0 672768 663601 9999 0 0 672745 672255 9999 0 0 ST
672768 663601 0 4999 9999 664045 672370 0 4999 9999 672745 672255 0 4999 9999 ST
672768 663601 0 4999 9999 664068 663716 0 4999 9999 664045 672370 0 4999 9999 ST
672745 672255 0 9999 0 664977 673654 0 9999 0 673677 673539 0 9999 0 ST
672745 672255 0 9999 0 664045 672370 0 9999 0 664977 673654 0 9999 0 ST
vuEnd
%%PageTrailer
%%Trailer
end
%%EOF
