%!PS-Adobe-3.0 EPSF-3.0
%%BoundingBox: 36 126 576 666 % if scaleFact <= 0 (automatic)
%%%  -44 46 656 746 % if scaleFact > 0
%%%  0 0 612 792 % for the entire page
%%Creator: VU % http://www.invisu.ca/ , support@invisu.ca, using GL2PS 1.3.2, (C) 1999-2006 Christophe Geuzaine (geuz@geuz.org)
%%For: benoit
%%CreationDate: Mon Feb 25 19:23:12 2013
%%LanguageLevel: 3
%%Pages: 1
%%EndComments
%%BeginProlog
/gl2psdict 64 dict def gl2psdict begin
/rotAngle          0 def % rotation angle (deg)
/scaleFact         0 def % scale factor (0: automatic)
/backgroundColor   [ 0 0 0.25 ] def % colored background
%/backgroundColor   [ 1 1 1 ] def % white background
%/backgroundColor   [ 0 0 0 ] def % black background
/doBackground      1 def % 0 false, else true
/doBorder          1 def % 0 false, else true
/inBlackAndWhite   0 def % 0 color, 1 conversion, 2 black to white, 3 black and white (not very good!)
/lineWidth 1 def % line width (point)
/fontType /Helvetica-Bold def % font choice ; /Times-Roman
/fontSize 15 def % font height (point) 
/tryPS3shading true def % set to false to force subdivision
/rThreshold 0.064 def % red component subdivision threshold
/gThreshold 0.034 def % green component subdivision threshold
/bThreshold 0.1 def % blue component subdivision threshold
/iTreshold 4 def % color index treshold for subdivision (lower = best quality ; min = 1, max = 256)
/bandTreshold 0.01 def % precision for the outline of bands (the lesser the better) 
%------------------------------------ 
/xmin 0 def /ymin 0 def /xmax 700 def /ymax 700 def
/dx xmax xmin sub def /dy ymax ymin sub def
/margeX 36 def /margeY 72 def
/BD { bind def } bind def
/vuBegin
{
  gsave /vuSavedState save def
  612 2 div 792 2 div translate
  rotAngle rotate
  scaleFact 0 gt { scaleFact dup scale }
  {
    /fx 612 margeX 2 mul sub dx div def
    /fy 792 margeY 2 mul sub dy div def
    fx fy le { fx } { fy } ifelse dup scale
  } ifelse
  dx -2 div dy -2 div translate
  /vuCadre { newpath 0 0 moveto 0 700 lineto 700 700 lineto 700 0 lineto closepath } def
  vuCadre clip
  doBackground 0 ne { vuCadre BGC fill } if
  gsave
  0.001 0.001 scale
} def
/vuEnd
{
  grestore
  doBorder 0 ne { vuCadre BGI stroke } if
  vuSavedState restore grestore
  showpage
} def
/BGC {backgroundColor aload pop BWsetrgbcolor} bind def
/BGI {backgroundColor { .5 ge {0} {1} ifelse } forall BWsetrgbcolor} bind def
/R { /DeviceRGB setcolorspace } bind def
/rgb2h {
/coulB exch def /coulG exch def /coulR exch def
/coulmax coulR coulG lt { coulG } { coulR } ifelse dup coulB lt { pop coulB } if def
/coulmin coulR coulG gt { coulG } { coulR } ifelse dup coulB gt { pop coulB } if def
coulmax 0 eq { 0 } { coulmax coulmin sub coulmax div } ifelse 0 eq { 0 }
{
/rc coulmax coulR sub coulmax coulmin sub div def
/gc coulmax coulG sub coulmax coulmin sub div def
/bc coulmax coulB sub coulmax coulmin sub div def
coulR coulmax eq
{ bc gc sub } { coulG coulmax eq { rc bc sub 2 add } { gc rc sub 4 add } ifelse } ifelse
} ifelse 6 div % --> between 0 and 1
1 exch sub % between 1 and 0
} BD
/rgb2bw { setrgbcolor currentgray 0 eq { 1 } { 0 } ifelse } BD
/BWsetrgbcolor  [ {setrgbcolor}
         {setrgbcolor currentgray setgray}
         {rgb2h setgray}
         {rgb2bw setgray}
       ] inBlackAndWhite get BD
/BWgetrgbcolor  [ {}
         {setrgbcolor currentgray dup dup}
         {rgb2h dup dup}
         {rgb2bw dup dup}
       ] inBlackAndWhite get BD
/rgb2bw { setrgbcolor currentgray 0 eq { 1 } { 0 } ifelse } BD
/C  { 9999 div 3 1 roll 9999 div 3 1 roll 9999 div 3 1 roll BWsetrgbcolor } BD
/G  { 0.082 mul exch 0.6094 mul add exch 0.3086 mul add neg 1.0 add setgray } BD
/W  { pop lineWidth 1000 mul setlinewidth } BD
/FC { fontType findfont fontSize 1000 mul scalefont
      dup length dict begin {1 index /FID ne {def} {pop pop} ifelse} forall /Encoding ISOLatin1Encoding def currentdict end
      /myfontype-ISOLatin1Encoding exch definefont setfont } BD
/SW { dup stringwidth pop } BD
/S  { FC moveto show } BD
/SBC{ FC moveto SW -2 div 0 rmoveto show } BD
/SBR{ FC moveto SW neg 0 rmoveto show } BD
/SCL{ FC moveto 0 SH -2 div rmoveto show } BD
/SCC{ FC moveto SW -2 div SH -2 div rmoveto show } BD
/SCR{ FC moveto SW neg SH -2 div rmoveto show } BD
/STL{ FC moveto 0 SH neg rmoveto show } BD
/STC{ FC moveto SW -2 div SH neg rmoveto show } BD
/STR{ FC moveto SW neg SH neg rmoveto show } BD
/FCT { FC translate 0 0 } BD
/SR  { gsave FCT moveto rotate show grestore } BD
/SBCR{ gsave FCT moveto rotate SW -2 div 0 rmoveto show grestore } BD
/SBRR{ gsave FCT moveto rotate SW neg 0 rmoveto show grestore } BD
/SCLR{ gsave FCT moveto rotate 0 SH -2 div rmoveto show grestore} BD
/SCCR{ gsave FCT moveto rotate SW -2 div SH -2 div rmoveto show grestore} BD
/SCRR{ gsave FCT moveto rotate SW neg SH -2 div rmoveto show grestore} BD
/STLR{ gsave FCT moveto rotate 0 SH neg rmoveto show grestore } BD
/STCR{ gsave FCT moveto rotate SW -2 div SH neg rmoveto show grestore } BD
/STRR{ gsave FCT moveto rotate SW neg SH neg rmoveto show grestore } BD
/P  { newpath 0.0 360.0 arc closepath fill } BD
/LS { newpath moveto } BD
/L  { lineto } BD
/LE { lineto stroke } BD
/T  { newpath moveto lineto lineto closepath fill } BD
/STshfill {
      /b1 exch def /g1 exch def /r1 exch def /y1 exch def /x1 exch def
      /b2 exch def /g2 exch def /r2 exch def /y2 exch def /x2 exch def
      /b3 exch def /g3 exch def /r3 exch def /y3 exch def /x3 exch def
      /b1 b1 9999 div def /b2 b2 9999 div def /b3 b3 9999 div def
      /g1 g1 9999 div def /g2 g2 9999 div def /g3 g3 9999 div def
      /r1 r1 9999 div def /r2 r2 9999 div def /r3 r3 9999 div def
      r3 g3 b3 BWgetrgbcolor r2 g2 b2 BWgetrgbcolor r1 g1 b1 BWgetrgbcolor
      /b1 exch def /g1 exch def /r1 exch def
      /b2 exch def /g2 exch def /r2 exch def
      /b3 exch def /g3 exch def /r3 exch def
      gsave << /ShadingType 4 /ColorSpace [/DeviceRGB]
      /DataSource [ 0 x1 y1 r1 g1 b1 0 x2 y2 r2 g2 b2 0 x3 y3 r3 g3 b3 ] >>
      shfill grestore } BD
/Tm { 3 -1 roll 8 -1 roll 13 -1 roll add add 3 div
      3 -1 roll 7 -1 roll 11 -1 roll add add 3 div
      3 -1 roll 6 -1 roll 9 -1 roll add add 3 div C T } BD
%*************** FONCTIONS PATCHEES POUR LES PALETTES ******************* 
/TmP { gsave 3 -1 roll 9 -1 roll 15 -1 roll add add 3 div
      3 -1 roll 8 -1 roll 13 -1 roll add add 3 div
      3 -1 roll 7 -1 roll 11 -1 roll add add 3 div
      12 -1 roll 10 -1 roll 8 -1 roll 
      round setcolor currentrgbcolor 5 -2 roll
      round setcolor currentrgbcolor 4 -1 roll
      round setcolor currentrgbcolor 
      3 -1 roll 6 -1 roll 9 -1 roll add add 3 div
      3 -1 roll 5 -1 roll 7 -1 roll add add 3 div
      3 -1 roll 4 -1 roll 5 -1 roll add add 3 div
      3 -1 roll 6 -1 roll mul
      3 -1 roll 5 -1 roll mul
       3 -1 roll 4 -1 roll mul
      /DeviceRGB setcolorspace C T grestore} BD
/STsplitP {
      5 index 18 index add 0.5 mul
      5 index 18 index add 0.5 mul
      5 index 18 index add 0.5 mul
      5 index 18 index add 0.5 mul
      5 index 18 index add 0.5 mul
      5 index 18 index add 0.5 mul
      6 copy 6 copy 30 18 roll
      11 index 36 index add 0.5 mul
      11 index 36 index add 0.5 mul
      11 index 36 index add 0.5 mul
      11 index 36 index add 0.5 mul
      11 index 36 index add 0.5 mul
      11 index 36 index add 0.5 mul
      6 copy 6 copy 42 6 roll 30 6 roll 18 6 roll
      5 index 12 index add 0.5 mul
      5 index 12 index add 0.5 mul
      5 index 12 index add 0.5 mul
      5 index 12 index add 0.5 mul
      5 index 12 index add 0.5 mul
      5 index 12 index add 0.5 mul
      6 copy 6 copy 48 6 roll 30 6 roll 18 6 roll 30 6 roll
      STnoshfillP STnoshfillP STnoshfillP STnoshfillP } BD
/STnoshfillP {
                       5 index 12 index sub abs iTreshold gt
                        { STsplitP }
                        { 5 index 18 index sub abs iTreshold gt
                          { STsplitP }
                          { 11 index 18 index sub abs iTreshold gt
                            { STsplitP }
                            { TmP }
                            ifelse }
                          ifelse }
                      ifelse } BD
/STP { STnoshfillP } BD
/STsplitPB {
      5 index 18 index add 0.5 mul
      5 index 18 index add 0.5 mul
      5 index 18 index add 0.5 mul
      5 index 18 index add 0.5 mul
      5 index 18 index add 0.5 mul
      5 index 18 index add 0.5 mul
      6 copy 6 copy 30 18 roll
      11 index 36 index add 0.5 mul
      11 index 36 index add 0.5 mul
      11 index 36 index add 0.5 mul
      11 index 36 index add 0.5 mul
      11 index 36 index add 0.5 mul
      11 index 36 index add 0.5 mul
      6 copy 6 copy 42 6 roll 30 6 roll 18 6 roll
      5 index 12 index add 0.5 mul
      5 index 12 index add 0.5 mul
      5 index 12 index add 0.5 mul
      5 index 12 index add 0.5 mul
      5 index 12 index add 0.5 mul
      5 index 12 index add 0.5 mul
      6 copy 6 copy 48 6 roll 30 6 roll 18 6 roll 30 6 roll
      STnoshfillPB STnoshfillPB STnoshfillPB STnoshfillPB } BD
/STnoshfillPB {
                       5 index 12 index sub abs bandTreshold ge 6 index 0.5 add floor 13 index 0.5 add floor sub abs 1.0 ge and 
                        { STsplitPB }
                        { 5 index 18 index sub abs bandTreshold ge 6 index 0.5 add floor 19 index 0.5 add floor sub abs 1.0 ge and 
                          { STsplitPB }
                          { 11 index 18 index sub abs bandTreshold ge 12 index 0.5 add floor 19 index 0.5 add floor sub abs 1.0 ge and 
                            { STsplitPB }
                            { TmP }
                            ifelse }
                          ifelse }
                      ifelse } BD
/STPB { STnoshfillPB } BD
/LSP {
         2 index 6 index sub abs iTreshold gt
          { LSsplit }
          { LScol }
           ifelse  } BD
/LSsplit {
         2 index 6 index add 0.5 mul
         2 index 6 index add 0.5 mul
         2 index 6 index add 0.5 mul
         3 copy 9 6 roll
         LSP LSP } BD
/LScol {
         gsave 3 -1 roll 6 -1 roll add 2 div
         round setcolor 
         newpath moveto lineto stroke grestore } BD
%*************** FIN PATCH **********************************
 /STsplit {
      4 index 15 index add 0.5 mul
      4 index 15 index add 0.5 mul
      4 index 15 index add 0.5 mul
      4 index 15 index add 0.5 mul
      4 index 15 index add 0.5 mul
      5 copy 5 copy 25 15 roll
      9 index 30 index add 0.5 mul
      9 index 30 index add 0.5 mul
      9 index 30 index add 0.5 mul
      9 index 30 index add 0.5 mul
      9 index 30 index add 0.5 mul
      5 copy 5 copy 35 5 roll 25 5 roll 15 5 roll
      4 index 10 index add 0.5 mul
      4 index 10 index add 0.5 mul
      4 index 10 index add 0.5 mul
      4 index 10 index add 0.5 mul
      4 index 10 index add 0.5 mul
      5 copy 5 copy 40 5 roll 25 5 roll 15 5 roll 25 5 roll
      STnoshfill STnoshfill STnoshfill STnoshfill } BD
/STnoshfill {
      2 index 8 index sub abs rThreshold gt
      { STsplit }
      { 1 index 7 index sub abs gThreshold gt
        { STsplit }
        { dup 6 index sub abs bThreshold gt
          { STsplit }
          { 2 index 13 index sub abs rThreshold gt
            { STsplit }
            { 1 index 12 index sub abs gThreshold gt
              { STsplit }
              { dup 11 index sub abs bThreshold gt
                { STsplit }
                { 7 index 13 index sub abs rThreshold gt
                  { STsplit }
                  { 6 index 12 index sub abs gThreshold gt
                    { STsplit }
                    { 5 index 11 index sub abs bThreshold gt
                      { STsplit }
                      { Tm }
                      ifelse }
                    ifelse }
                  ifelse }
                ifelse }
              ifelse }
            ifelse }
          ifelse }
        ifelse }
      ifelse } BD
tryPS3shading
{ /shfill where
  { /ST { STshfill } BD }
  { /ST { STnoshfill } BD }
  ifelse }
{ /ST { STnoshfill } BD }
ifelse
end
%%EndProlog
%%BeginSetup
/DeviceRGB setcolorspace
gl2psdict begin
%%EndSetup
%%Page: 1 1
%%BeginPageSetup
%%EndPageSetup
vuBegin
6999 8999 8999 C
(Z) 282230 346880 S
(X) 367515 335080 S
(Y) 350730 418320 S
/P1 { [/Indexed /DeviceRGB 255 <0000ff 0004ff 0008ff 000cff 0010ff 0014ff 0018ff 001cff 0020ff 0024ff 0028ff 002cff 0030ff 0034ff 0038ff 003cff 0040ff 0044ff 0048ff 004cff 0050ff 0054ff 0058ff 005cff 0060ff 0064ff 0068ff 006cff 0070ff 0074ff 0078ff 007cff 0080ff 0084ff 0088ff 008cff 0090ff 0094ff 0098ff 009cff 00a0ff 00a4ff 00a8ff 00acff 00b0ff 00b4ff 00b8ff 00bcff 00c0ff 00c4ff 00c8ff 00ccff 00d0ff 00d4ff 00d8ff 00dcff 00e0ff 00e4ff 00e8ff 00ecff 00f0ff 00f4ff 00f8ff 00fcff 00fffe 00fffa 00fff5 00fff2 00ffee 00ffea 00ffe5 00ffe2 00ffde 00ffda 00ffd5 00ffd2 00ffce 00ffca 00ffc5 00ffc2 00ffbe 00ffba 00ffb5 00ffb2 00ffae 00ffaa 00ffa5 00ffa2 00ff9e 00ff9a 00ff95 00ff92 00ff8e 00ff8a 00ff85 00ff82 00ff7e 00ff7a 00ff75 00ff71 00ff6e 00ff6a 00ff65 00ff61 00ff5e 00ff5a 00ff55 00ff51 00ff4e 00ff4a 00ff45 00ff41 00ff3e 00ff3a 00ff35 00ff31 00ff2e 00ff2a 00ff25 00ff21 00ff1e 00ff1a 00ff15 00ff11 00ff0e 00ff0a 00ff05 00ff01 01ff00 05ff00 09ff00 0dff00 12ff00 16ff00 1aff00 1eff00 21ff00 25ff00 29ff00 2dff00 32ff00 36ff00 3aff00 3eff00 41ff00 45ff00 49ff00 4dff00 52ff00 56ff00 5aff00 5eff00 61ff00 65ff00 69ff00 6dff00 72ff00 76ff00 7aff00 7eff00 82ff00 85ff00 89ff00 8dff00 92ff00 96ff00 9aff00 9eff00 a2ff00 a5ff00 a9ff00 adff00 b2ff00 b6ff00 baff00 beff00 c2ff00 c5ff00 c9ff00 cdff00 d2ff00 d6ff00 daff00 deff00 e2ff00 e5ff00 e9ff00 edff00 f2ff00 f6ff00 faff00 feff00 fffc00 fff800 fff400 fff000 ffeb00 ffe700 ffe300 ffe000 ffdc00 ffd800 ffd400 ffd000 ffcb00 ffc700 ffc300 ffc000 ffbc00 ffb800 ffb400 ffb000 ffab00 ffa700 ffa300 ffa000 ff9c00 ff9800 ff9400 ff9000 ff8b00 ff8700 ff8300 ff8000 ff7c00 ff7800 ff7400 ff7000 ff6b00 ff6700 ff6300 ff6000 ff5c00 ff5800 ff5400 ff5000 ff4b00 ff4700 ff4300 ff4000 ff3c00 ff3800 ff3400 ff3000 ff2b00 ff2700 ff2300 ff2000 ff1c00 ff1800 ff1400 ff1000 ff0b00 ff0700 ff0300 ff0000>] setcolorspace } BD 
P1 255 202821 100701 8935 8935 8935 255 203664 179591 8935 8935 8935 31 281074 104303 8935 8935 8935 STP
31 278898 225955 8935 8935 8935 31 313993 170751 8935 8935 8935 255 203664 179591 8935 8935 8935 STP
31 313993 170751 8935 8935 8935 31 281074 104303 8935 8935 8935 255 203664 179591 8935 8935 8935 STP
255 203664 179591 8935 8935 8935 255 204508 258480 8935 8935 8935 31 278898 225955 8935 8935 8935 STP
31 359327 107905 8935 8935 8935 31 281074 104303 8935 8935 8935 31 313993 170751 8935 8935 8935 STP
255 207039 495149 8935 8935 8935 31 285292 498751 8935 8935 8935 255 206195 416259 8935 8935 8935 STP
31 594930 197601 8935 8935 8935 31 594087 118712 8935 8935 8935 31 515833 115110 8935 8935 8935 STP
31 598305 513160 8935 8935 8935 31 597461 434270 8935 8935 8935 31 520052 509558 8935 8935 8935 STP
31 437580 111507 8935 8935 8935 31 359327 107905 8935 8935 8935 31 401020 173715 8935 8935 8935 STP
31 359327 107905 8935 8935 8935 31 313993 170751 8935 8935 8935 31 401020 173715 8935 8935 8935 STP
31 441798 505955 8935 8935 8935 31 520052 509558 8935 8935 8935 31 489717 439601 8935 8935 8935 STP
31 520052 509558 8935 8935 8935 31 597461 434270 8935 8935 8935 31 489717 439601 8935 8935 8935 STP
31 447928 239447 8935 8935 8935 31 401020 173715 8935 8935 8935 31 359976 233035 8935 8935 8935 STP
31 401020 173715 8935 8935 8935 31 313993 170751 8935 8935 8935 31 359976 233035 8935 8935 8935 STP
31 313993 170751 8935 8935 8935 31 278898 225955 8935 8935 8935 31 359976 233035 8935 8935 8935 STP
31 312346 287918 8935 8935 8935 31 266742 348082 8935 8935 8935 31 358278 361534 8935 8935 8935 STP
31 266742 348082 8935 8935 8935 31 313777 426931 8935 8935 8935 31 358278 361534 8935 8935 8935 STP
31 359976 233035 8935 8935 8935 31 278898 225955 8935 8935 8935 31 312346 287918 8935 8935 8935 STP
31 405674 300422 8935 8935 8935 31 359976 233035 8935 8935 8935 31 312346 287918 8935 8935 8935 STP
31 358278 361534 8935 8935 8935 31 405674 300422 8935 8935 8935 31 312346 287918 8935 8935 8935 STP
31 448522 371247 8935 8935 8935 31 405674 300422 8935 8935 8935 31 358278 361534 8935 8935 8935 STP
31 448522 371247 8935 8935 8935 31 358278 361534 8935 8935 8935 31 402606 434603 8935 8935 8935 STP
31 358278 361534 8935 8935 8935 31 313777 426931 8935 8935 8935 31 402606 434603 8935 8935 8935 STP
31 402606 434603 8935 8935 8935 31 313777 426931 8935 8935 8935 31 363545 502353 8935 8935 8935 STP
31 285292 498751 8935 8935 8935 31 363545 502353 8935 8935 8935 31 313777 426931 8935 8935 8935 STP
31 312346 287918 8935 8935 8935 31 278898 225955 8935 8935 8935 255 204508 258480 8935 8935 8935 STP
31 312346 287918 8935 8935 8935 255 204508 258480 8935 8935 8935 31 266742 348082 8935 8935 8935 STP
255 204508 258480 8935 8935 8935 255 205351 337370 8935 8935 8935 31 266742 348082 8935 8935 8935 STP
255 205351 337370 8935 8935 8935 255 206195 416259 8935 8935 8935 31 266742 348082 8935 8935 8935 STP
31 266742 348082 8935 8935 8935 255 206195 416259 8935 8935 8935 31 313777 426931 8935 8935 8935 STP
31 313777 426931 8935 8935 8935 255 206195 416259 8935 8935 8935 31 285292 498751 8935 8935 8935 STP
31 402606 434603 8935 8935 8935 31 363545 502353 8935 8935 8935 31 441798 505955 8935 8935 8935 STP
31 402606 434603 8935 8935 8935 31 441798 505955 8935 8935 8935 31 489717 439601 8935 8935 8935 STP
31 448522 371247 8935 8935 8935 31 402606 434603 8935 8935 8935 31 489717 439601 8935 8935 8935 STP
31 359976 233035 8935 8935 8935 31 405674 300422 8935 8935 8935 31 447928 239447 8935 8935 8935 STP
31 506995 309352 8935 8935 8935 31 447928 239447 8935 8935 8935 31 405674 300422 8935 8935 8935 STP
31 448522 371247 8935 8935 8935 31 489717 439601 8935 8935 8935 31 527862 381970 8935 8935 8935 STP
31 448522 371247 8935 8935 8935 31 527862 381970 8935 8935 8935 31 506995 309352 8935 8935 8935 STP
31 405674 300422 8935 8935 8935 31 448522 371247 8935 8935 8935 31 506995 309352 8935 8935 8935 STP
31 527862 381970 8935 8935 8935 31 489717 439601 8935 8935 8935 31 597461 434270 8935 8935 8935 STP
31 437580 111507 8935 8935 8935 31 401020 173715 8935 8935 8935 31 487313 179648 8935 8935 8935 STP
31 401020 173715 8935 8935 8935 31 447928 239447 8935 8935 8935 31 487313 179648 8935 8935 8935 STP
31 597461 434270 8935 8935 8935 31 596617 355381 8935 8935 8935 31 527862 381970 8935 8935 8935 STP
31 594930 197601 8935 8935 8935 31 487313 179648 8935 8935 8935 31 526588 240508 8935 8935 8935 STP
31 594930 197601 8935 8935 8935 31 526588 240508 8935 8935 8935 31 595774 276491 8935 8935 8935 STP
31 506995 309352 8935 8935 8935 31 595774 276491 8935 8935 8935 31 526588 240508 8935 8935 8935 STP
31 526588 240508 8935 8935 8935 31 487313 179648 8935 8935 8935 31 447928 239447 8935 8935 8935 STP
31 506995 309352 8935 8935 8935 31 526588 240508 8935 8935 8935 31 447928 239447 8935 8935 8935 STP
31 596617 355381 8935 8935 8935 31 595774 276491 8935 8935 8935 31 506995 309352 8935 8935 8935 STP
31 527862 381970 8935 8935 8935 31 596617 355381 8935 8935 8935 31 506995 309352 8935 8935 8935 STP
31 487313 179648 8935 8935 8935 31 594930 197601 8935 8935 8935 31 515833 115110 8935 8935 8935 STP
31 487313 179648 8935 8935 8935 31 515833 115110 8935 8935 8935 31 437580 111507 8935 8935 8935 STP
9999 9999 9999 C
1 W
9999 9999 9999 C
202887 100704 LS
281074 104303 LE
515833 115110 LS
594087 118712 LE
437580 111507 LS
515833 115110 LE
594020 118768 LS
594087 118712 LE
594930 197601 LS
594087 118712 LE
598304 513101 LS
597461 434270 LE
596617 355381 LS
597461 434270 LE
596617 355381 LS
595774 276491 LE
P1 255 105913 581287 5704 5704 5704 31 184166 584889 5704 5704 5704 255 126138 564060 5704 5704 5704 STP
31 200400 560139 5704 5704 5704 255 146363 546832 5704 5704 5704 255 126138 564060 5704 5704 5704 STP
31 184166 584889 5704 5704 5704 31 262419 588492 5704 5704 5704 31 247623 570669 5704 5704 5704 STP
31 184166 584889 5704 5704 5704 31 247623 570669 5704 5704 5704 31 200400 560139 5704 5704 5704 STP
31 184166 584889 5704 5704 5704 31 200400 560139 5704 5704 5704 255 126138 564060 5704 5704 5704 STP
255 207039 495149 5704 5704 5704 255 186813 512377 5704 5704 5704 31 285292 498751 5704 5704 5704 STP
31 497178 599298 5704 5704 5704 31 517404 582070 5704 5704 5704 31 418925 595696 5704 5704 5704 STP
31 598305 513160 5704 5704 5704 31 520052 509558 5704 5704 5704 31 578079 530387 5704 5704 5704 STP
255 166588 529604 5704 5704 5704 255 146363 546832 5704 5704 5704 31 223864 541045 5704 5704 5704 STP
255 146363 546832 5704 5704 5704 31 200400 560139 5704 5704 5704 31 223864 541045 5704 5704 5704 STP
31 285292 498751 5704 5704 5704 255 186813 512377 5704 5704 5704 31 251011 521910 5704 5704 5704 STP
255 186813 512377 5704 5704 5704 255 166588 529604 5704 5704 5704 31 251011 521910 5704 5704 5704 STP
31 578079 530387 5704 5704 5704 31 503817 534308 5704 5704 5704 31 557854 547615 5704 5704 5704 STP
31 304580 534450 5704 5704 5704 31 251011 521910 5704 5704 5704 31 223864 541045 5704 5704 5704 STP
31 251011 521910 5704 5704 5704 255 166588 529604 5704 5704 5704 31 223864 541045 5704 5704 5704 STP
31 304580 534450 5704 5704 5704 31 274244 553336 5704 5704 5704 31 352109 547224 5704 5704 5704 STP
31 340672 592094 5704 5704 5704 31 418925 595696 5704 5704 5704 31 365291 579217 5704 5704 5704 STP
31 418925 595696 5704 5704 5704 31 453206 572537 5704 5704 5704 31 365291 579217 5704 5704 5704 STP
31 365291 579217 5704 5704 5704 31 399636 559997 5704 5704 5704 31 316887 566489 5704 5704 5704 STP
31 316887 566489 5704 5704 5704 31 399636 559997 5704 5704 5704 31 352109 547224 5704 5704 5704 STP
31 316887 566489 5704 5704 5704 31 352109 547224 5704 5704 5704 31 274244 553336 5704 5704 5704 STP
31 453206 572537 5704 5704 5704 31 399636 559997 5704 5704 5704 31 365291 579217 5704 5704 5704 STP
31 262419 588492 5704 5704 5704 31 340672 592094 5704 5704 5704 31 365291 579217 5704 5704 5704 STP
31 316887 566489 5704 5704 5704 31 274244 553336 5704 5704 5704 31 247623 570669 5704 5704 5704 STP
31 262419 588492 5704 5704 5704 31 365291 579217 5704 5704 5704 31 316887 566489 5704 5704 5704 STP
31 316887 566489 5704 5704 5704 31 247623 570669 5704 5704 5704 31 262419 588492 5704 5704 5704 STP
31 418925 595696 5704 5704 5704 31 517404 582070 5704 5704 5704 31 453206 572537 5704 5704 5704 STP
31 200400 560139 5704 5704 5704 31 247623 570669 5704 5704 5704 31 274244 553336 5704 5704 5704 STP
31 223864 541045 5704 5704 5704 31 200400 560139 5704 5704 5704 31 274244 553336 5704 5704 5704 STP
31 223864 541045 5704 5704 5704 31 274244 553336 5704 5704 5704 31 304580 534450 5704 5704 5704 STP
31 453206 572537 5704 5704 5704 31 517404 582070 5704 5704 5704 31 537629 564843 5704 5704 5704 STP
31 453206 572537 5704 5704 5704 31 537629 564843 5704 5704 5704 31 480353 553402 5704 5704 5704 STP
31 537629 564843 5704 5704 5704 31 557854 547615 5704 5704 5704 31 480353 553402 5704 5704 5704 STP
31 285292 498751 5704 5704 5704 31 251011 521910 5704 5704 5704 31 338926 515230 5704 5704 5704 STP
31 251011 521910 5704 5704 5704 31 304580 534450 5704 5704 5704 31 338926 515230 5704 5704 5704 STP
31 399636 559997 5704 5704 5704 31 453206 572537 5704 5704 5704 31 480353 553402 5704 5704 5704 STP
31 363545 502353 5704 5704 5704 31 285292 498751 5704 5704 5704 31 338926 515230 5704 5704 5704 STP
31 387330 527958 5704 5704 5704 31 304580 534450 5704 5704 5704 31 352109 547224 5704 5704 5704 STP
31 503817 534308 5704 5704 5704 31 456594 523778 5704 5704 5704 31 429973 541111 5704 5704 5704 STP
31 456594 523778 5704 5704 5704 31 387330 527958 5704 5704 5704 31 429973 541111 5704 5704 5704 STP
31 480353 553402 5704 5704 5704 31 503817 534308 5704 5704 5704 31 429973 541111 5704 5704 5704 STP
31 399636 559997 5704 5704 5704 31 480353 553402 5704 5704 5704 31 429973 541111 5704 5704 5704 STP
31 429973 541111 5704 5704 5704 31 352109 547224 5704 5704 5704 31 399636 559997 5704 5704 5704 STP
31 352109 547224 5704 5704 5704 31 429973 541111 5704 5704 5704 31 387330 527958 5704 5704 5704 STP
31 387330 527958 5704 5704 5704 31 338926 515230 5704 5704 5704 31 304580 534450 5704 5704 5704 STP
31 441798 505955 5704 5704 5704 31 338926 515230 5704 5704 5704 31 387330 527958 5704 5704 5704 STP
31 387330 527958 5704 5704 5704 31 456594 523778 5704 5704 5704 31 441798 505955 5704 5704 5704 STP
31 480353 553402 5704 5704 5704 31 557854 547615 5704 5704 5704 31 503817 534308 5704 5704 5704 STP
31 338926 515230 5704 5704 5704 31 441798 505955 5704 5704 5704 31 363545 502353 5704 5704 5704 STP
31 520052 509558 5704 5704 5704 31 441798 505955 5704 5704 5704 31 456594 523778 5704 5704 5704 STP
31 456594 523778 5704 5704 5704 31 503817 534308 5704 5704 5704 31 520052 509558 5704 5704 5704 STP
31 503817 534308 5704 5704 5704 31 578079 530387 5704 5704 5704 31 520052 509558 5704 5704 5704 STP
9999 9999 9999 C
9999 9999 9999 C
598304 513101 LS
598305 513160 LE
207105 495152 LS
285292 498751 LE
520052 509558 LS
598305 513160 LE
497178 599239 LS
497178 599298 LE
517404 582070 LS
497178 599298 LE
578079 530387 LS
598305 513160 LE
557854 547615 LS
578079 530387 LE
537629 564843 LS
517404 582070 LE
557854 547615 LS
537629 564843 LE
P1 255 121920 169612 5839 5839 5839 255 101694 186839 5839 5839 5839 255 102538 265729 5839 5839 5839 STP
255 105069 502398 5839 5839 5839 255 105913 581287 5839 5839 5839 255 126138 564060 5839 5839 5839 STP
255 203664 179591 5839 5839 5839 255 202821 100701 5839 5839 5839 255 182595 117929 5839 5839 5839 STP
255 189193 397959 5839 5839 5839 255 205351 337370 5839 5839 5839 255 188521 309986 5839 5839 5839 STP
255 205351 337370 5839 5839 5839 255 204508 258480 5839 5839 5839 255 188521 309986 5839 5839 5839 STP
255 143679 486750 5839 5839 5839 255 146363 546832 5839 5839 5839 255 166588 529604 5839 5839 5839 STP
255 166588 529604 5839 5839 5839 255 175003 446367 5839 5839 5839 255 159151 426500 5839 5839 5839 STP
255 143679 486750 5839 5839 5839 255 166588 529604 5839 5839 5839 255 159151 426500 5839 5839 5839 STP
255 143679 486750 5839 5839 5839 255 126138 564060 5839 5839 5839 255 146363 546832 5839 5839 5839 STP
255 105069 502398 5839 5839 5839 255 126138 564060 5839 5839 5839 255 123512 456914 5839 5839 5839 STP
255 126138 564060 5839 5839 5839 255 143679 486750 5839 5839 5839 255 123512 456914 5839 5839 5839 STP
255 123512 456914 5839 5839 5839 255 143679 486750 5839 5839 5839 255 140324 396588 5839 5839 5839 STP
255 143679 486750 5839 5839 5839 255 159151 426500 5839 5839 5839 255 140324 396588 5839 5839 5839 STP
255 159151 426500 5839 5839 5839 255 175003 446367 5839 5839 5839 255 173271 365397 5839 5839 5839 STP
255 175003 446367 5839 5839 5839 255 189193 397959 5839 5839 5839 255 173271 365397 5839 5839 5839 STP
255 105069 502398 5839 5839 5839 255 123512 456914 5839 5839 5839 255 104225 423508 5839 5839 5839 STP
255 104225 423508 5839 5839 5839 255 123512 456914 5839 5839 5839 255 121635 368184 5839 5839 5839 STP
255 123512 456914 5839 5839 5839 255 140324 396588 5839 5839 5839 255 121635 368184 5839 5839 5839 STP
255 189193 397959 5839 5839 5839 255 188521 309986 5839 5839 5839 255 173271 365397 5839 5839 5839 STP
255 137926 306884 5839 5839 5839 255 140324 396588 5839 5839 5839 255 156040 334295 5839 5839 5839 STP
255 140324 396588 5839 5839 5839 255 159151 426500 5839 5839 5839 255 156040 334295 5839 5839 5839 STP
255 142145 152384 5839 5839 5839 255 135257 228520 5839 5839 5839 255 153854 233128 5839 5839 5839 STP
255 135257 228520 5839 5839 5839 255 137926 306884 5839 5839 5839 255 153854 233128 5839 5839 5839 STP
255 162370 135156 5839 5839 5839 255 142145 152384 5839 5839 5839 255 153854 233128 5839 5839 5839 STP
255 173271 365397 5839 5839 5839 255 188521 309986 5839 5839 5839 255 171717 277272 5839 5839 5839 STP
255 188521 309986 5839 5839 5839 255 187088 223441 5839 5839 5839 255 171717 277272 5839 5839 5839 STP
255 173271 365397 5839 5839 5839 255 171717 277272 5839 5839 5839 255 156040 334295 5839 5839 5839 STP
255 187088 223441 5839 5839 5839 255 171525 197385 5839 5839 5839 255 171717 277272 5839 5839 5839 STP
255 156040 334295 5839 5839 5839 255 171717 277272 5839 5839 5839 255 153854 233128 5839 5839 5839 STP
255 171717 277272 5839 5839 5839 255 171525 197385 5839 5839 5839 255 153854 233128 5839 5839 5839 STP
255 156040 334295 5839 5839 5839 255 153854 233128 5839 5839 5839 255 137926 306884 5839 5839 5839 STP
255 173271 365397 5839 5839 5839 255 156040 334295 5839 5839 5839 255 159151 426500 5839 5839 5839 STP
255 204508 258480 5839 5839 5839 255 203664 179591 5839 5839 5839 255 187088 223441 5839 5839 5839 STP
255 188521 309986 5839 5839 5839 255 204508 258480 5839 5839 5839 255 187088 223441 5839 5839 5839 STP
255 171525 197385 5839 5839 5839 255 187088 223441 5839 5839 5839 255 182595 117929 5839 5839 5839 STP
255 187088 223441 5839 5839 5839 255 203664 179591 5839 5839 5839 255 182595 117929 5839 5839 5839 STP
255 162370 135156 5839 5839 5839 255 153854 233128 5839 5839 5839 255 171525 197385 5839 5839 5839 STP
255 182595 117929 5839 5839 5839 255 162370 135156 5839 5839 5839 255 171525 197385 5839 5839 5839 STP
255 135257 228520 5839 5839 5839 255 142145 152384 5839 5839 5839 255 121920 169612 5839 5839 5839 STP
255 137926 306884 5839 5839 5839 255 135257 228520 5839 5839 5839 255 120443 280591 5839 5839 5839 STP
255 135257 228520 5839 5839 5839 255 121920 169612 5839 5839 5839 255 120443 280591 5839 5839 5839 STP
255 121920 169612 5839 5839 5839 255 102538 265729 5839 5839 5839 255 120443 280591 5839 5839 5839 STP
255 102538 265729 5839 5839 5839 255 103382 344618 5839 5839 5839 255 120443 280591 5839 5839 5839 STP
255 121635 368184 5839 5839 5839 255 120443 280591 5839 5839 5839 255 103382 344618 5839 5839 5839 STP
255 103382 344618 5839 5839 5839 255 104225 423508 5839 5839 5839 255 121635 368184 5839 5839 5839 STP
255 137926 306884 5839 5839 5839 255 120443 280591 5839 5839 5839 255 121635 368184 5839 5839 5839 STP
255 121635 368184 5839 5839 5839 255 140324 396588 5839 5839 5839 255 137926 306884 5839 5839 5839 STP
255 186813 512377 5839 5839 5839 255 207039 495149 5839 5839 5839 255 206195 416259 5839 5839 5839 STP
255 166588 529604 5839 5839 5839 255 186813 512377 5839 5839 5839 255 175003 446367 5839 5839 5839 STP
255 189193 397959 5839 5839 5839 255 186813 512377 5839 5839 5839 255 206195 416259 5839 5839 5839 STP
255 205351 337370 5839 5839 5839 255 189193 397959 5839 5839 5839 255 206195 416259 5839 5839 5839 STP
255 175003 446367 5839 5839 5839 255 186813 512377 5839 5839 5839 255 189193 397959 5839 5839 5839 STP
9999 9999 9999 C
9999 9999 9999 C
102538 265729 LS
101694 186839 LE
105069 502398 LS
105913 581287 LE
103382 344618 LS
102538 265729 LE
121920 169612 LS
101694 186839 LE
182595 117929 LS
202821 100701 LE
202887 100704 LS
202821 100701 LE
101761 186842 LS
101694 186839 LE
203664 179591 LS
202821 100701 LE
204508 258480 LS
203664 179591 LE
206195 416259 LS
207039 495149 LE
206195 416259 LS
205351 337370 LE
126138 564060 LS
105913 581287 LE
126138 564060 LS
146363 546832 LE
186813 512377 LS
207039 495149 LE
207105 495152 LS
207039 495149 LE
350000 60344 0 0 2499 576293 0 0 0 2499 350000 0 0 0 2499 ST
700000 60344 0 0 2499 700000 0 0 0 2499 576293 0 0 0 2499 ST
350000 60344 0 0 2499 700000 60344 0 0 2499 576293 0 0 0 2499 ST
0 57126 0 0 2499 214224 0 0 0 2499 0 0 0 0 2499 ST
350000 0 0 0 2499 214224 0 0 0 2499 0 57126 0 0 2499 ST
350000 60344 0 0 2499 350000 0 0 0 2499 0 57126 0 0 2499 ST
0 60344 0 0 2499 350000 60344 0 0 2499 0 57126 0 0 2499 ST
P1 226 582976 36206 9999 9999 9999 0 48275 36206 9999 9999 9999 0 48275 30172 9999 9999 9999 STP
226 582976 36206 9999 9999 9999 0 48275 30172 9999 9999 9999 226 582976 30172 9999 9999 9999 STP
229 590615 36206 9999 9999 9999 226 582976 36206 9999 9999 9999 226 582976 30172 9999 9999 9999 STP
229 590615 36206 9999 9999 9999 226 582976 30172 9999 9999 9999 229 590615 30172 9999 9999 9999 STP
232 598254 36206 9999 9999 9999 229 590615 36206 9999 9999 9999 229 590615 30172 9999 9999 9999 STP
232 598254 36206 9999 9999 9999 229 590615 30172 9999 9999 9999 232 598254 30172 9999 9999 9999 STP
236 605892 36206 9999 9999 9999 232 598254 36206 9999 9999 9999 232 598254 30172 9999 9999 9999 STP
236 605892 36206 9999 9999 9999 232 598254 30172 9999 9999 9999 236 605892 30172 9999 9999 9999 STP
239 613531 36206 9999 9999 9999 236 605892 36206 9999 9999 9999 236 605892 30172 9999 9999 9999 STP
239 613531 36206 9999 9999 9999 236 605892 30172 9999 9999 9999 239 613531 30172 9999 9999 9999 STP
242 621169 36206 9999 9999 9999 239 613531 36206 9999 9999 9999 239 613531 30172 9999 9999 9999 STP
242 621169 36206 9999 9999 9999 239 613531 30172 9999 9999 9999 242 621169 30172 9999 9999 9999 STP
245 628808 36206 9999 9999 9999 242 621169 36206 9999 9999 9999 242 621169 30172 9999 9999 9999 STP
245 628808 36206 9999 9999 9999 242 621169 30172 9999 9999 9999 245 628808 30172 9999 9999 9999 STP
249 636447 36206 9999 9999 9999 245 628808 36206 9999 9999 9999 245 628808 30172 9999 9999 9999 STP
249 636447 36206 9999 9999 9999 245 628808 30172 9999 9999 9999 249 636447 30172 9999 9999 9999 STP
252 644085 36206 9999 9999 9999 249 636447 36206 9999 9999 9999 249 636447 30172 9999 9999 9999 STP
252 644085 36206 9999 9999 9999 249 636447 30172 9999 9999 9999 252 644085 30172 9999 9999 9999 STP
255 651724 36206 9999 9999 9999 252 644085 36206 9999 9999 9999 252 644085 30172 9999 9999 9999 STP
255 651724 36206 9999 9999 9999 252 644085 30172 9999 9999 9999 255 651724 30172 9999 9999 9999 STP
9999 9999 9999 C
(-13.85213.8523.852.852852522) 30172 12068 S
(8.9182.91829182182822) 150862 12068 S
(31.6891.689.689689899) 271551 12068 S
(54.4594.459.459459599) 392241 12068 S
(77.237.23.23233) 512931 12068 S
(100000) 633620 12068 S
($11) 48275 42241 S
6599 6599 6599 C
48275 24137 LS
48275 36206 LE
108620 24137 LS
108620 36206 LE
168965 24137 LS
168965 36206 LE
229310 24137 LS
229310 36206 LE
289655 24137 LS
289655 36206 LE
350000 24137 LS
350000 36206 LE
410344 24137 LS
410344 36206 LE
470689 24137 LS
470689 36206 LE
531034 24137 LS
531034 36206 LE
591379 24137 LS
591379 36206 LE
651724 24137 LS
651724 36206 LE
9999 9999 9999 C
184166 584889 LS
105913 581287 LE
418925 595696 LS
497178 599298 LE
6999 6999 6999 C
665000 665000 LS
665228 686350 LE
665000 665000 LS
643822 664025 LE
6999 8999 8999 C
(Y) 665228 686350 S
(Z) 643822 664025 S
658718 662745 0 4999 9999 656620 673150 0 4999 9999 658809 671285 0 4999 9999 ST
658718 662745 0 4999 9999 656528 664610 0 4999 9999 656620 673150 0 4999 9999 ST
667189 663135 9999 0 9999 656528 664610 9999 0 9999 658718 662745 9999 0 9999 ST
667189 663135 9999 0 9999 665000 665000 9999 0 9999 656528 664610 9999 0 9999 ST
6999 6999 6999 C
665000 665000 LS
670473 660337 LE
6999 8999 8999 C
(X) 670473 660337 S
667189 663135 9999 0 0 658809 671285 9999 0 0 667280 671675 9999 0 0 ST
667189 663135 9999 0 0 658718 662745 9999 0 0 658809 671285 9999 0 0 ST
658809 671285 0 9999 0 665091 673540 0 9999 0 667280 671675 0 9999 0 ST
658809 671285 0 9999 0 656620 673150 0 9999 0 665091 673540 0 9999 0 ST
vuEnd
%%PageTrailer
%%Trailer
end
%%EOF
